name="ChargingAnim_LisaA.apk" info_1="609343c51bbce9849561f1d6d36983e7" info_2="258d59d4b2ae9e646537365ac4a627a5" location="overlay/ChargingAnim_LisaA.apk"
name="ChargingAnim_LisaB.apk" info_1="609343c51bbce9849561f1d6d36983e7" info_2="258d59d4b2ae9e646537365ac4a627a5" location="overlay/ChargingAnim_LisaB.apk"
name="ChargingAnim_LongZhu.apk" info_1="609343c51bbce9849561f1d6d36983e7" info_2="258d59d4b2ae9e646537365ac4a627a5" location="overlay/ChargingAnim_LongZhu.apk"
name="DiracAudioControlService.apk" info_1="609343c51bbce9849561f1d6d36983e7" info_2="258d59d4b2ae9e646537365ac4a627a5" location="non_overlay/priv-app/DiracAudioControlService/DiracAudioControlService.apk"
name="GTAnim.apk" info_1="609343c51bbce9849561f1d6d36983e7" info_2="258d59d4b2ae9e646537365ac4a627a5" location="overlay/GTAnim.apk"
name="GTAnim_LongZhu.apk" info_1="609343c51bbce9849561f1d6d36983e7" info_2="258d59d4b2ae9e646537365ac4a627a5" location="overlay/GTAnim_LongZhu.apk"
name="MultimediaOverlay.20609.product.apk" info_1="609343c51bbce9849561f1d6d36983e7" info_2="258d59d4b2ae9e646537365ac4a627a5" location="overlay/MultimediaOverlay.20609.product.apk"
name="MultimediaOverlay.2060A.product.apk" info_1="609343c51bbce9849561f1d6d36983e7" info_2="258d59d4b2ae9e646537365ac4a627a5" location="overlay/MultimediaOverlay.2060A.product.apk"
name="MultimediaOverlay.2060B.product.apk" info_1="609343c51bbce9849561f1d6d36983e7" info_2="258d59d4b2ae9e646537365ac4a627a5" location="overlay/MultimediaOverlay.2060B.product.apk"
name="MultimediaOverlay.20630.product.apk" info_1="609343c51bbce9849561f1d6d36983e7" info_2="258d59d4b2ae9e646537365ac4a627a5" location="overlay/MultimediaOverlay.20630.product.apk"
name="MultimediaOverlay.20631.product.apk" info_1="609343c51bbce9849561f1d6d36983e7" info_2="258d59d4b2ae9e646537365ac4a627a5" location="overlay/MultimediaOverlay.20631.product.apk"
name="MultimediaOverlay.20633.product.apk" info_1="609343c51bbce9849561f1d6d36983e7" info_2="258d59d4b2ae9e646537365ac4a627a5" location="overlay/MultimediaOverlay.20633.product.apk"
name="MultimediaOverlay.20638.product.apk" info_1="609343c51bbce9849561f1d6d36983e7" info_2="258d59d4b2ae9e646537365ac4a627a5" location="overlay/MultimediaOverlay.20638.product.apk"
name="MultimediaOverlay.20639.product.apk" info_1="609343c51bbce9849561f1d6d36983e7" info_2="258d59d4b2ae9e646537365ac4a627a5" location="overlay/MultimediaOverlay.20639.product.apk"
name="MultimediaOverlay.206B7.product.apk" info_1="609343c51bbce9849561f1d6d36983e7" info_2="258d59d4b2ae9e646537365ac4a627a5" location="overlay/MultimediaOverlay.206B7.product.apk"
name="MultimediaOverlay.206FF.product.apk" info_1="609343c51bbce9849561f1d6d36983e7" info_2="258d59d4b2ae9e646537365ac4a627a5" location="overlay/MultimediaOverlay.206FF.product.apk"
name="MultimediaOverlay.2070C.product.apk" info_1="609343c51bbce9849561f1d6d36983e7" info_2="258d59d4b2ae9e646537365ac4a627a5" location="overlay/MultimediaOverlay.2070C.product.apk"
name="MultimediaOverlay.20795.product.apk" info_1="609343c51bbce9849561f1d6d36983e7" info_2="258d59d4b2ae9e646537365ac4a627a5" location="overlay/MultimediaOverlay.20795.product.apk"
name="MultimediaOverlay.20796.product.apk" info_1="609343c51bbce9849561f1d6d36983e7" info_2="258d59d4b2ae9e646537365ac4a627a5" location="overlay/MultimediaOverlay.20796.product.apk"
name="MultimediaOverlay.216A0.product.apk" info_1="609343c51bbce9849561f1d6d36983e7" info_2="258d59d4b2ae9e646537365ac4a627a5" location="overlay/MultimediaOverlay.216A0.product.apk"
name="NetworkStackOverlay.tmo.apk" info_1="609343c51bbce9849561f1d6d36983e7" info_2="258d59d4b2ae9e646537365ac4a627a5" location="overlay/NetworkStackOverlay.tmo.apk"
name="OVoiceManagerService2Mic_21051.apk" info_1="609343c51bbce9849561f1d6d36983e7" info_2="258d59d4b2ae9e646537365ac4a627a5" location="app/OVoiceManagerService2Mic_21051/OVoiceManagerService2Mic_21051.apk"
name="OplusCamera.apk" info_1="e8a71c3e5138520361de78048d6674b2" info_2="16e5c3459f965b0003043ed074e50744" location="non_overlay/app/OplusCamera/OplusCamera.apk"
name="OplusDiracService.apk" info_1="609343c51bbce9849561f1d6d36983e7" info_2="258d59d4b2ae9e646537365ac4a627a5" location="app/OplusDiracService/OplusDiracService.apk"
name="OplusNaCarrierConfig_res_overlay.apk" info_1="609343c51bbce9849561f1d6d36983e7" info_2="258d59d4b2ae9e646537365ac4a627a5" location="overlay/OplusNaCarrierConfig_res_overlay.apk"
name="RcsSDK_res_overlay.apk" info_1="609343c51bbce9849561f1d6d36983e7" info_2="258d59d4b2ae9e646537365ac4a627a5" location="overlay/RcsSDK_res_overlay.apk"
name="SystemClone.apk" info_1="737bfa449bcb3eda3736a87d00cca982" info_2="65b55f10bf2d77dc8a5aa58d8d8a18d0" location="priv-app/SystemClone/SystemClone.apk"
name="SystemUIChargingRes_Alita_SuperVooc2.apk" info_1="609343c51bbce9849561f1d6d36983e7" info_2="258d59d4b2ae9e646537365ac4a627a5" location="overlay/SystemUIChargingRes_Alita_SuperVooc2.apk"
name="SystemUIChargingRes_Gundam.apk" info_1="609343c51bbce9849561f1d6d36983e7" info_2="258d59d4b2ae9e646537365ac4a627a5" location="overlay/SystemUIChargingRes_Gundam.apk"
name="SystemUIChargingRes_Siphon_Wireless.apk" info_1="609343c51bbce9849561f1d6d36983e7" info_2="258d59d4b2ae9e646537365ac4a627a5" location="overlay/SystemUIChargingRes_Siphon_Wireless.apk"
name="SystemUIChargingRes_Wave_Normal.apk" info_1="609343c51bbce9849561f1d6d36983e7" info_2="258d59d4b2ae9e646537365ac4a627a5" location="overlay/SystemUIChargingRes_Wave_Normal.apk"
name="SystemUIChargingRes_Wave_SuperVooc.apk" info_1="609343c51bbce9849561f1d6d36983e7" info_2="258d59d4b2ae9e646537365ac4a627a5" location="overlay/SystemUIChargingRes_Wave_SuperVooc.apk"
name="SystemUIChargingRes_Wave_SuperVooc2.apk" info_1="609343c51bbce9849561f1d6d36983e7" info_2="258d59d4b2ae9e646537365ac4a627a5" location="overlay/SystemUIChargingRes_Wave_SuperVooc2.apk"
name="SystemUIChargingRes_Wave_Vooc.apk" info_1="609343c51bbce9849561f1d6d36983e7" info_2="258d59d4b2ae9e646537365ac4a627a5" location="overlay/SystemUIChargingRes_Wave_Vooc.apk"
name="SystemUIChargingRes_Wave_Wireless.apk" info_1="609343c51bbce9849561f1d6d36983e7" info_2="258d59d4b2ae9e646537365ac4a627a5" location="overlay/SystemUIChargingRes_Wave_Wireless.apk"
name="SystemUIFingerprintRes_CCYH.apk" info_1="609343c51bbce9849561f1d6d36983e7" info_2="258d59d4b2ae9e646537365ac4a627a5" location="overlay/SystemUIFingerprintRes_CCYH.apk"
name="SystemUIFingerprintRes_COSMOS.apk" info_1="609343c51bbce9849561f1d6d36983e7" info_2="258d59d4b2ae9e646537365ac4a627a5" location="overlay/SystemUIFingerprintRes_COSMOS.apk"
name="SystemUIFingerprintRes_ENERGY.apk" info_1="609343c51bbce9849561f1d6d36983e7" info_2="258d59d4b2ae9e646537365ac4a627a5" location="overlay/SystemUIFingerprintRes_ENERGY.apk"
name="SystemUIFingerprintRes_FIREWORKS.apk" info_1="609343c51bbce9849561f1d6d36983e7" info_2="258d59d4b2ae9e646537365ac4a627a5" location="overlay/SystemUIFingerprintRes_FIREWORKS.apk"
name="SystemUIFingerprintRes_JHSY.apk" info_1="609343c51bbce9849561f1d6d36983e7" info_2="258d59d4b2ae9e646537365ac4a627a5" location="overlay/SystemUIFingerprintRes_JHSY.apk"
name="SystemUIFingerprintRes_JSLZ.apk" info_1="609343c51bbce9849561f1d6d36983e7" info_2="258d59d4b2ae9e646537365ac4a627a5" location="overlay/SystemUIFingerprintRes_JSLZ.apk"
name="SystemUIFingerprintRes_LGSY.apk" info_1="609343c51bbce9849561f1d6d36983e7" info_2="258d59d4b2ae9e646537365ac4a627a5" location="overlay/SystemUIFingerprintRes_LGSY.apk"
name="SystemUIFingerprintRes_MAGIC.apk" info_1="609343c51bbce9849561f1d6d36983e7" info_2="258d59d4b2ae9e646537365ac4a627a5" location="overlay/SystemUIFingerprintRes_MAGIC.apk"
name="SystemUIFingerprintRes_NLGS.apk" info_1="609343c51bbce9849561f1d6d36983e7" info_2="258d59d4b2ae9e646537365ac4a627a5" location="overlay/SystemUIFingerprintRes_NLGS.apk"
name="SystemUIFingerprintRes_NONE.apk" info_1="609343c51bbce9849561f1d6d36983e7" info_2="258d59d4b2ae9e646537365ac4a627a5" location="overlay/SystemUIFingerprintRes_NONE.apk"
name="SystemUIFingerprintRes_NONE2.apk" info_1="609343c51bbce9849561f1d6d36983e7" info_2="258d59d4b2ae9e646537365ac4a627a5" location="overlay/SystemUIFingerprintRes_NONE2.apk"
name="SystemUIFingerprintRes_RIPPLE.apk" info_1="609343c51bbce9849561f1d6d36983e7" info_2="258d59d4b2ae9e646537365ac4a627a5" location="overlay/SystemUIFingerprintRes_RIPPLE.apk"
name="SystemUIFingerprintRes_STRIPE.apk" info_1="609343c51bbce9849561f1d6d36983e7" info_2="258d59d4b2ae9e646537365ac4a627a5" location="overlay/SystemUIFingerprintRes_STRIPE.apk"
name="SystemUIFingerprintRes_TYJW.apk" info_1="609343c51bbce9849561f1d6d36983e7" info_2="258d59d4b2ae9e646537365ac4a627a5" location="overlay/SystemUIFingerprintRes_TYJW.apk"
name="SystemUIFingerprintRes_WORMHOLE.apk" info_1="609343c51bbce9849561f1d6d36983e7" info_2="258d59d4b2ae9e646537365ac4a627a5" location="overlay/SystemUIFingerprintRes_WORMHOLE.apk"
name="SystemUIFingerprintRes_XKLC.apk" info_1="609343c51bbce9849561f1d6d36983e7" info_2="258d59d4b2ae9e646537365ac4a627a5" location="overlay/SystemUIFingerprintRes_XKLC.apk"
name="android_framework_res_overlay.android.product.20041.apk" info_1="609343c51bbce9849561f1d6d36983e7" info_2="258d59d4b2ae9e646537365ac4a627a5" location="overlay/android_framework_res_overlay.android.product.20041.apk"
name="android_framework_res_overlay.display.product.19015.apk" info_1="609343c51bbce9849561f1d6d36983e7" info_2="258d59d4b2ae9e646537365ac4a627a5" location="overlay/android_framework_res_overlay.display.product.19015.apk"
name="android_framework_res_overlay.display.product.19016.apk" info_1="609343c51bbce9849561f1d6d36983e7" info_2="258d59d4b2ae9e646537365ac4a627a5" location="overlay/android_framework_res_overlay.display.product.19016.apk"
name="android_framework_res_overlay.display.product.19101.apk" info_1="609343c51bbce9849561f1d6d36983e7" info_2="258d59d4b2ae9e646537365ac4a627a5" location="overlay/android_framework_res_overlay.display.product.19101.apk"
name="android_framework_res_overlay.display.product.19125.apk" info_1="609343c51bbce9849561f1d6d36983e7" info_2="258d59d4b2ae9e646537365ac4a627a5" location="overlay/android_framework_res_overlay.display.product.19125.apk"
name="android_framework_res_overlay.display.product.19126.apk" info_1="609343c51bbce9849561f1d6d36983e7" info_2="258d59d4b2ae9e646537365ac4a627a5" location="overlay/android_framework_res_overlay.display.product.19126.apk"
name="android_framework_res_overlay.display.product.19127.apk" info_1="609343c51bbce9849561f1d6d36983e7" info_2="258d59d4b2ae9e646537365ac4a627a5" location="overlay/android_framework_res_overlay.display.product.19127.apk"
name="android_framework_res_overlay.display.product.19128.apk" info_1="609343c51bbce9849561f1d6d36983e7" info_2="258d59d4b2ae9e646537365ac4a627a5" location="overlay/android_framework_res_overlay.display.product.19128.apk"
name="android_framework_res_overlay.display.product.19131.apk" info_1="609343c51bbce9849561f1d6d36983e7" info_2="258d59d4b2ae9e646537365ac4a627a5" location="overlay/android_framework_res_overlay.display.product.19131.apk"
name="android_framework_res_overlay.display.product.19132.apk" info_1="609343c51bbce9849561f1d6d36983e7" info_2="258d59d4b2ae9e646537365ac4a627a5" location="overlay/android_framework_res_overlay.display.product.19132.apk"
name="android_framework_res_overlay.display.product.19161.apk" info_1="609343c51bbce9849561f1d6d36983e7" info_2="258d59d4b2ae9e646537365ac4a627a5" location="overlay/android_framework_res_overlay.display.product.19161.apk"
name="android_framework_res_overlay.display.product.19163.apk" info_1="609343c51bbce9849561f1d6d36983e7" info_2="258d59d4b2ae9e646537365ac4a627a5" location="overlay/android_framework_res_overlay.display.product.19163.apk"
name="android_framework_res_overlay.display.product.19165.apk" info_1="609343c51bbce9849561f1d6d36983e7" info_2="258d59d4b2ae9e646537365ac4a627a5" location="overlay/android_framework_res_overlay.display.product.19165.apk"
name="android_framework_res_overlay.display.product.19191.apk" info_1="609343c51bbce9849561f1d6d36983e7" info_2="258d59d4b2ae9e646537365ac4a627a5" location="overlay/android_framework_res_overlay.display.product.19191.apk"
name="android_framework_res_overlay.display.product.19192.apk" info_1="609343c51bbce9849561f1d6d36983e7" info_2="258d59d4b2ae9e646537365ac4a627a5" location="overlay/android_framework_res_overlay.display.product.19192.apk"
name="android_framework_res_overlay.display.product.19354.apk" info_1="609343c51bbce9849561f1d6d36983e7" info_2="258d59d4b2ae9e646537365ac4a627a5" location="overlay/android_framework_res_overlay.display.product.19354.apk"
name="android_framework_res_overlay.display.product.19358.apk" info_1="609343c51bbce9849561f1d6d36983e7" info_2="258d59d4b2ae9e646537365ac4a627a5" location="overlay/android_framework_res_overlay.display.product.19358.apk"
name="android_framework_res_overlay.display.product.19359.apk" info_1="609343c51bbce9849561f1d6d36983e7" info_2="258d59d4b2ae9e646537365ac4a627a5" location="overlay/android_framework_res_overlay.display.product.19359.apk"
name="android_framework_res_overlay.display.product.19420.apk" info_1="609343c51bbce9849561f1d6d36983e7" info_2="258d59d4b2ae9e646537365ac4a627a5" location="overlay/android_framework_res_overlay.display.product.19420.apk"
name="android_framework_res_overlay.display.product.19501.apk" info_1="609343c51bbce9849561f1d6d36983e7" info_2="258d59d4b2ae9e646537365ac4a627a5" location="overlay/android_framework_res_overlay.display.product.19501.apk"
name="android_framework_res_overlay.display.product.19521.apk" info_1="609343c51bbce9849561f1d6d36983e7" info_2="258d59d4b2ae9e646537365ac4a627a5" location="overlay/android_framework_res_overlay.display.product.19521.apk"
name="android_framework_res_overlay.display.product.19525.apk" info_1="609343c51bbce9849561f1d6d36983e7" info_2="258d59d4b2ae9e646537365ac4a627a5" location="overlay/android_framework_res_overlay.display.product.19525.apk"
name="android_framework_res_overlay.display.product.19536.apk" info_1="609343c51bbce9849561f1d6d36983e7" info_2="258d59d4b2ae9e646537365ac4a627a5" location="overlay/android_framework_res_overlay.display.product.19536.apk"
name="android_framework_res_overlay.display.product.19537.apk" info_1="609343c51bbce9849561f1d6d36983e7" info_2="258d59d4b2ae9e646537365ac4a627a5" location="overlay/android_framework_res_overlay.display.product.19537.apk"
name="android_framework_res_overlay.display.product.19538.apk" info_1="609343c51bbce9849561f1d6d36983e7" info_2="258d59d4b2ae9e646537365ac4a627a5" location="overlay/android_framework_res_overlay.display.product.19538.apk"
name="android_framework_res_overlay.display.product.19539.apk" info_1="609343c51bbce9849561f1d6d36983e7" info_2="258d59d4b2ae9e646537365ac4a627a5" location="overlay/android_framework_res_overlay.display.product.19539.apk"
name="android_framework_res_overlay.display.product.19541.apk" info_1="609343c51bbce9849561f1d6d36983e7" info_2="258d59d4b2ae9e646537365ac4a627a5" location="overlay/android_framework_res_overlay.display.product.19541.apk"
name="android_framework_res_overlay.display.product.19550.apk" info_1="609343c51bbce9849561f1d6d36983e7" info_2="258d59d4b2ae9e646537365ac4a627a5" location="overlay/android_framework_res_overlay.display.product.19550.apk"
name="android_framework_res_overlay.display.product.19551.apk" info_1="609343c51bbce9849561f1d6d36983e7" info_2="258d59d4b2ae9e646537365ac4a627a5" location="overlay/android_framework_res_overlay.display.product.19551.apk"
name="android_framework_res_overlay.display.product.19553.apk" info_1="609343c51bbce9849561f1d6d36983e7" info_2="258d59d4b2ae9e646537365ac4a627a5" location="overlay/android_framework_res_overlay.display.product.19553.apk"
name="android_framework_res_overlay.display.product.19556.apk" info_1="609343c51bbce9849561f1d6d36983e7" info_2="258d59d4b2ae9e646537365ac4a627a5" location="overlay/android_framework_res_overlay.display.product.19556.apk"
name="android_framework_res_overlay.display.product.19591.apk" info_1="609343c51bbce9849561f1d6d36983e7" info_2="258d59d4b2ae9e646537365ac4a627a5" location="overlay/android_framework_res_overlay.display.product.19591.apk"
name="android_framework_res_overlay.display.product.19805.apk" info_1="609343c51bbce9849561f1d6d36983e7" info_2="258d59d4b2ae9e646537365ac4a627a5" location="overlay/android_framework_res_overlay.display.product.19805.apk"
name="android_framework_res_overlay.display.product.19811.apk" info_1="609343c51bbce9849561f1d6d36983e7" info_2="258d59d4b2ae9e646537365ac4a627a5" location="overlay/android_framework_res_overlay.display.product.19811.apk"
name="android_framework_res_overlay.display.product.19813.apk" info_1="609343c51bbce9849561f1d6d36983e7" info_2="258d59d4b2ae9e646537365ac4a627a5" location="overlay/android_framework_res_overlay.display.product.19813.apk"
name="android_framework_res_overlay.display.product.19821.apk" info_1="609343c51bbce9849561f1d6d36983e7" info_2="258d59d4b2ae9e646537365ac4a627a5" location="overlay/android_framework_res_overlay.display.product.19821.apk"
name="android_framework_res_overlay.display.product.19823.apk" info_1="609343c51bbce9849561f1d6d36983e7" info_2="258d59d4b2ae9e646537365ac4a627a5" location="overlay/android_framework_res_overlay.display.product.19823.apk"
name="android_framework_res_overlay.display.product.19835.apk" info_1="609343c51bbce9849561f1d6d36983e7" info_2="258d59d4b2ae9e646537365ac4a627a5" location="overlay/android_framework_res_overlay.display.product.19835.apk"
name="android_framework_res_overlay.display.product.19837.apk" info_1="609343c51bbce9849561f1d6d36983e7" info_2="258d59d4b2ae9e646537365ac4a627a5" location="overlay/android_framework_res_overlay.display.product.19837.apk"
name="android_framework_res_overlay.display.product.19839.apk" info_1="609343c51bbce9849561f1d6d36983e7" info_2="258d59d4b2ae9e646537365ac4a627a5" location="overlay/android_framework_res_overlay.display.product.19839.apk"
name="android_framework_res_overlay.display.product.19841.apk" info_1="609343c51bbce9849561f1d6d36983e7" info_2="258d59d4b2ae9e646537365ac4a627a5" location="overlay/android_framework_res_overlay.display.product.19841.apk"
name="android_framework_res_overlay.display.product.19855.apk" info_1="609343c51bbce9849561f1d6d36983e7" info_2="258d59d4b2ae9e646537365ac4a627a5" location="overlay/android_framework_res_overlay.display.product.19855.apk"
name="android_framework_res_overlay.display.product.20001.apk" info_1="609343c51bbce9849561f1d6d36983e7" info_2="258d59d4b2ae9e646537365ac4a627a5" location="overlay/android_framework_res_overlay.display.product.20001.apk"
name="android_framework_res_overlay.display.product.20002.apk" info_1="609343c51bbce9849561f1d6d36983e7" info_2="258d59d4b2ae9e646537365ac4a627a5" location="overlay/android_framework_res_overlay.display.product.20002.apk"
name="android_framework_res_overlay.display.product.20015.apk" info_1="609343c51bbce9849561f1d6d36983e7" info_2="258d59d4b2ae9e646537365ac4a627a5" location="overlay/android_framework_res_overlay.display.product.20015.apk"
name="android_framework_res_overlay.display.product.20016.apk" info_1="609343c51bbce9849561f1d6d36983e7" info_2="258d59d4b2ae9e646537365ac4a627a5" location="overlay/android_framework_res_overlay.display.product.20016.apk"
name="android_framework_res_overlay.display.product.20041.apk" info_1="609343c51bbce9849561f1d6d36983e7" info_2="258d59d4b2ae9e646537365ac4a627a5" location="overlay/android_framework_res_overlay.display.product.20041.apk"
name="android_framework_res_overlay.display.product.20042.apk" info_1="609343c51bbce9849561f1d6d36983e7" info_2="258d59d4b2ae9e646537365ac4a627a5" location="overlay/android_framework_res_overlay.display.product.20042.apk"
name="android_framework_res_overlay.display.product.20043.apk" info_1="609343c51bbce9849561f1d6d36983e7" info_2="258d59d4b2ae9e646537365ac4a627a5" location="overlay/android_framework_res_overlay.display.product.20043.apk"
name="android_framework_res_overlay.display.product.20057.apk" info_1="609343c51bbce9849561f1d6d36983e7" info_2="258d59d4b2ae9e646537365ac4a627a5" location="overlay/android_framework_res_overlay.display.product.20057.apk"
name="android_framework_res_overlay.display.product.20058.apk" info_1="609343c51bbce9849561f1d6d36983e7" info_2="258d59d4b2ae9e646537365ac4a627a5" location="overlay/android_framework_res_overlay.display.product.20058.apk"
name="android_framework_res_overlay.display.product.20075.apk" info_1="609343c51bbce9849561f1d6d36983e7" info_2="258d59d4b2ae9e646537365ac4a627a5" location="overlay/android_framework_res_overlay.display.product.20075.apk"
name="android_framework_res_overlay.display.product.20076.apk" info_1="609343c51bbce9849561f1d6d36983e7" info_2="258d59d4b2ae9e646537365ac4a627a5" location="overlay/android_framework_res_overlay.display.product.20076.apk"
name="android_framework_res_overlay.display.product.20095.apk" info_1="609343c51bbce9849561f1d6d36983e7" info_2="258d59d4b2ae9e646537365ac4a627a5" location="overlay/android_framework_res_overlay.display.product.20095.apk"
name="android_framework_res_overlay.display.product.20108.apk" info_1="609343c51bbce9849561f1d6d36983e7" info_2="258d59d4b2ae9e646537365ac4a627a5" location="overlay/android_framework_res_overlay.display.product.20108.apk"
name="android_framework_res_overlay.display.product.20109.apk" info_1="609343c51bbce9849561f1d6d36983e7" info_2="258d59d4b2ae9e646537365ac4a627a5" location="overlay/android_framework_res_overlay.display.product.20109.apk"
name="android_framework_res_overlay.display.product.20111.apk" info_1="609343c51bbce9849561f1d6d36983e7" info_2="258d59d4b2ae9e646537365ac4a627a5" location="overlay/android_framework_res_overlay.display.product.20111.apk"
name="android_framework_res_overlay.display.product.20113.apk" info_1="609343c51bbce9849561f1d6d36983e7" info_2="258d59d4b2ae9e646537365ac4a627a5" location="overlay/android_framework_res_overlay.display.product.20113.apk"
name="android_framework_res_overlay.display.product.20121.apk" info_1="609343c51bbce9849561f1d6d36983e7" info_2="258d59d4b2ae9e646537365ac4a627a5" location="overlay/android_framework_res_overlay.display.product.20121.apk"
name="android_framework_res_overlay.display.product.20122.apk" info_1="609343c51bbce9849561f1d6d36983e7" info_2="258d59d4b2ae9e646537365ac4a627a5" location="overlay/android_framework_res_overlay.display.product.20122.apk"
name="android_framework_res_overlay.display.product.20127.apk" info_1="609343c51bbce9849561f1d6d36983e7" info_2="258d59d4b2ae9e646537365ac4a627a5" location="overlay/android_framework_res_overlay.display.product.20127.apk"
name="android_framework_res_overlay.display.product.20131.apk" info_1="609343c51bbce9849561f1d6d36983e7" info_2="258d59d4b2ae9e646537365ac4a627a5" location="overlay/android_framework_res_overlay.display.product.20131.apk"
name="android_framework_res_overlay.display.product.20133.apk" info_1="609343c51bbce9849561f1d6d36983e7" info_2="258d59d4b2ae9e646537365ac4a627a5" location="overlay/android_framework_res_overlay.display.product.20133.apk"
name="android_framework_res_overlay.display.product.20135.apk" info_1="609343c51bbce9849561f1d6d36983e7" info_2="258d59d4b2ae9e646537365ac4a627a5" location="overlay/android_framework_res_overlay.display.product.20135.apk"
name="android_framework_res_overlay.display.product.20139.apk" info_1="609343c51bbce9849561f1d6d36983e7" info_2="258d59d4b2ae9e646537365ac4a627a5" location="overlay/android_framework_res_overlay.display.product.20139.apk"
name="android_framework_res_overlay.display.product.20151.apk" info_1="609343c51bbce9849561f1d6d36983e7" info_2="258d59d4b2ae9e646537365ac4a627a5" location="overlay/android_framework_res_overlay.display.product.20151.apk"
name="android_framework_res_overlay.display.product.20181.apk" info_1="609343c51bbce9849561f1d6d36983e7" info_2="258d59d4b2ae9e646537365ac4a627a5" location="overlay/android_framework_res_overlay.display.product.20181.apk"
name="android_framework_res_overlay.display.product.20191.apk" info_1="609343c51bbce9849561f1d6d36983e7" info_2="258d59d4b2ae9e646537365ac4a627a5" location="overlay/android_framework_res_overlay.display.product.20191.apk"
name="android_framework_res_overlay.display.product.20200.apk" info_1="609343c51bbce9849561f1d6d36983e7" info_2="258d59d4b2ae9e646537365ac4a627a5" location="overlay/android_framework_res_overlay.display.product.20200.apk"
name="android_framework_res_overlay.display.product.20207.apk" info_1="609343c51bbce9849561f1d6d36983e7" info_2="258d59d4b2ae9e646537365ac4a627a5" location="overlay/android_framework_res_overlay.display.product.20207.apk"
name="android_framework_res_overlay.display.product.20208.apk" info_1="609343c51bbce9849561f1d6d36983e7" info_2="258d59d4b2ae9e646537365ac4a627a5" location="overlay/android_framework_res_overlay.display.product.20208.apk"
name="android_framework_res_overlay.display.product.20211.apk" info_1="609343c51bbce9849561f1d6d36983e7" info_2="258d59d4b2ae9e646537365ac4a627a5" location="overlay/android_framework_res_overlay.display.product.20211.apk"
name="android_framework_res_overlay.display.product.20212.apk" info_1="609343c51bbce9849561f1d6d36983e7" info_2="258d59d4b2ae9e646537365ac4a627a5" location="overlay/android_framework_res_overlay.display.product.20212.apk"
name="android_framework_res_overlay.display.product.20213.apk" info_1="609343c51bbce9849561f1d6d36983e7" info_2="258d59d4b2ae9e646537365ac4a627a5" location="overlay/android_framework_res_overlay.display.product.20213.apk"
name="android_framework_res_overlay.display.product.20214.apk" info_1="609343c51bbce9849561f1d6d36983e7" info_2="258d59d4b2ae9e646537365ac4a627a5" location="overlay/android_framework_res_overlay.display.product.20214.apk"
name="android_framework_res_overlay.display.product.20215.apk" info_1="609343c51bbce9849561f1d6d36983e7" info_2="258d59d4b2ae9e646537365ac4a627a5" location="overlay/android_framework_res_overlay.display.product.20215.apk"
name="android_framework_res_overlay.display.product.20221.apk" info_1="609343c51bbce9849561f1d6d36983e7" info_2="258d59d4b2ae9e646537365ac4a627a5" location="overlay/android_framework_res_overlay.display.product.20221.apk"
name="android_framework_res_overlay.display.product.20222.apk" info_1="609343c51bbce9849561f1d6d36983e7" info_2="258d59d4b2ae9e646537365ac4a627a5" location="overlay/android_framework_res_overlay.display.product.20222.apk"
name="android_framework_res_overlay.display.product.20223.apk" info_1="609343c51bbce9849561f1d6d36983e7" info_2="258d59d4b2ae9e646537365ac4a627a5" location="overlay/android_framework_res_overlay.display.product.20223.apk"
name="android_framework_res_overlay.display.product.20224.apk" info_1="609343c51bbce9849561f1d6d36983e7" info_2="258d59d4b2ae9e646537365ac4a627a5" location="overlay/android_framework_res_overlay.display.product.20224.apk"
name="android_framework_res_overlay.display.product.20225.apk" info_1="609343c51bbce9849561f1d6d36983e7" info_2="258d59d4b2ae9e646537365ac4a627a5" location="overlay/android_framework_res_overlay.display.product.20225.apk"
name="android_framework_res_overlay.display.product.20226.apk" info_1="609343c51bbce9849561f1d6d36983e7" info_2="258d59d4b2ae9e646537365ac4a627a5" location="overlay/android_framework_res_overlay.display.product.20226.apk"
name="android_framework_res_overlay.display.product.20227.apk" info_1="609343c51bbce9849561f1d6d36983e7" info_2="258d59d4b2ae9e646537365ac4a627a5" location="overlay/android_framework_res_overlay.display.product.20227.apk"
name="android_framework_res_overlay.display.product.20228.apk" info_1="609343c51bbce9849561f1d6d36983e7" info_2="258d59d4b2ae9e646537365ac4a627a5" location="overlay/android_framework_res_overlay.display.product.20228.apk"
name="android_framework_res_overlay.display.product.20229.apk" info_1="609343c51bbce9849561f1d6d36983e7" info_2="258d59d4b2ae9e646537365ac4a627a5" location="overlay/android_framework_res_overlay.display.product.20229.apk"
name="android_framework_res_overlay.display.product.20235.apk" info_1="609343c51bbce9849561f1d6d36983e7" info_2="258d59d4b2ae9e646537365ac4a627a5" location="overlay/android_framework_res_overlay.display.product.20235.apk"
name="android_framework_res_overlay.display.product.20241.apk" info_1="609343c51bbce9849561f1d6d36983e7" info_2="258d59d4b2ae9e646537365ac4a627a5" location="overlay/android_framework_res_overlay.display.product.20241.apk"
name="android_framework_res_overlay.display.product.20242.apk" info_1="609343c51bbce9849561f1d6d36983e7" info_2="258d59d4b2ae9e646537365ac4a627a5" location="overlay/android_framework_res_overlay.display.product.20242.apk"
name="android_framework_res_overlay.display.product.20243.apk" info_1="609343c51bbce9849561f1d6d36983e7" info_2="258d59d4b2ae9e646537365ac4a627a5" location="overlay/android_framework_res_overlay.display.product.20243.apk"
name="android_framework_res_overlay.display.product.20245.apk" info_1="609343c51bbce9849561f1d6d36983e7" info_2="258d59d4b2ae9e646537365ac4a627a5" location="overlay/android_framework_res_overlay.display.product.20245.apk"
name="android_framework_res_overlay.display.product.20246.apk" info_1="609343c51bbce9849561f1d6d36983e7" info_2="258d59d4b2ae9e646537365ac4a627a5" location="overlay/android_framework_res_overlay.display.product.20246.apk"
name="android_framework_res_overlay.display.product.20247.apk" info_1="609343c51bbce9849561f1d6d36983e7" info_2="258d59d4b2ae9e646537365ac4a627a5" location="overlay/android_framework_res_overlay.display.product.20247.apk"
name="android_framework_res_overlay.display.product.20248.apk" info_1="609343c51bbce9849561f1d6d36983e7" info_2="258d59d4b2ae9e646537365ac4a627a5" location="overlay/android_framework_res_overlay.display.product.20248.apk"
name="android_framework_res_overlay.display.product.20251.apk" info_1="609343c51bbce9849561f1d6d36983e7" info_2="258d59d4b2ae9e646537365ac4a627a5" location="overlay/android_framework_res_overlay.display.product.20251.apk"
name="android_framework_res_overlay.display.product.20255.apk" info_1="609343c51bbce9849561f1d6d36983e7" info_2="258d59d4b2ae9e646537365ac4a627a5" location="overlay/android_framework_res_overlay.display.product.20255.apk"
name="android_framework_res_overlay.display.product.20257.apk" info_1="609343c51bbce9849561f1d6d36983e7" info_2="258d59d4b2ae9e646537365ac4a627a5" location="overlay/android_framework_res_overlay.display.product.20257.apk"
name="android_framework_res_overlay.display.product.20267.apk" info_1="609343c51bbce9849561f1d6d36983e7" info_2="258d59d4b2ae9e646537365ac4a627a5" location="overlay/android_framework_res_overlay.display.product.20267.apk"
name="android_framework_res_overlay.display.product.20268.apk" info_1="609343c51bbce9849561f1d6d36983e7" info_2="258d59d4b2ae9e646537365ac4a627a5" location="overlay/android_framework_res_overlay.display.product.20268.apk"
name="android_framework_res_overlay.display.product.20281.apk" info_1="609343c51bbce9849561f1d6d36983e7" info_2="258d59d4b2ae9e646537365ac4a627a5" location="overlay/android_framework_res_overlay.display.product.20281.apk"
name="android_framework_res_overlay.display.product.20282.apk" info_1="609343c51bbce9849561f1d6d36983e7" info_2="258d59d4b2ae9e646537365ac4a627a5" location="overlay/android_framework_res_overlay.display.product.20282.apk"
name="android_framework_res_overlay.display.product.20283.apk" info_1="609343c51bbce9849561f1d6d36983e7" info_2="258d59d4b2ae9e646537365ac4a627a5" location="overlay/android_framework_res_overlay.display.product.20283.apk"
name="android_framework_res_overlay.display.product.20284.apk" info_1="609343c51bbce9849561f1d6d36983e7" info_2="258d59d4b2ae9e646537365ac4a627a5" location="overlay/android_framework_res_overlay.display.product.20284.apk"
name="android_framework_res_overlay.display.product.20291.apk" info_1="609343c51bbce9849561f1d6d36983e7" info_2="258d59d4b2ae9e646537365ac4a627a5" location="overlay/android_framework_res_overlay.display.product.20291.apk"
name="android_framework_res_overlay.display.product.20292.apk" info_1="609343c51bbce9849561f1d6d36983e7" info_2="258d59d4b2ae9e646537365ac4a627a5" location="overlay/android_framework_res_overlay.display.product.20292.apk"
name="android_framework_res_overlay.display.product.20293.apk" info_1="609343c51bbce9849561f1d6d36983e7" info_2="258d59d4b2ae9e646537365ac4a627a5" location="overlay/android_framework_res_overlay.display.product.20293.apk"
name="android_framework_res_overlay.display.product.20294.apk" info_1="609343c51bbce9849561f1d6d36983e7" info_2="258d59d4b2ae9e646537365ac4a627a5" location="overlay/android_framework_res_overlay.display.product.20294.apk"
name="android_framework_res_overlay.display.product.20295.apk" info_1="609343c51bbce9849561f1d6d36983e7" info_2="258d59d4b2ae9e646537365ac4a627a5" location="overlay/android_framework_res_overlay.display.product.20295.apk"
name="android_framework_res_overlay.display.product.20301.apk" info_1="609343c51bbce9849561f1d6d36983e7" info_2="258d59d4b2ae9e646537365ac4a627a5" location="overlay/android_framework_res_overlay.display.product.20301.apk"
name="android_framework_res_overlay.display.product.20302.apk" info_1="609343c51bbce9849561f1d6d36983e7" info_2="258d59d4b2ae9e646537365ac4a627a5" location="overlay/android_framework_res_overlay.display.product.20302.apk"
name="android_framework_res_overlay.display.product.20307.apk" info_1="609343c51bbce9849561f1d6d36983e7" info_2="258d59d4b2ae9e646537365ac4a627a5" location="overlay/android_framework_res_overlay.display.product.20307.apk"
name="android_framework_res_overlay.display.product.20355.apk" info_1="609343c51bbce9849561f1d6d36983e7" info_2="258d59d4b2ae9e646537365ac4a627a5" location="overlay/android_framework_res_overlay.display.product.20355.apk"
name="android_framework_res_overlay.display.product.20375.apk" info_1="609343c51bbce9849561f1d6d36983e7" info_2="258d59d4b2ae9e646537365ac4a627a5" location="overlay/android_framework_res_overlay.display.product.20375.apk"
name="android_framework_res_overlay.display.product.20376.apk" info_1="609343c51bbce9849561f1d6d36983e7" info_2="258d59d4b2ae9e646537365ac4a627a5" location="overlay/android_framework_res_overlay.display.product.20376.apk"
name="android_framework_res_overlay.display.product.20377.apk" info_1="609343c51bbce9849561f1d6d36983e7" info_2="258d59d4b2ae9e646537365ac4a627a5" location="overlay/android_framework_res_overlay.display.product.20377.apk"
name="android_framework_res_overlay.display.product.20378.apk" info_1="609343c51bbce9849561f1d6d36983e7" info_2="258d59d4b2ae9e646537365ac4a627a5" location="overlay/android_framework_res_overlay.display.product.20378.apk"
name="android_framework_res_overlay.display.product.20379.apk" info_1="609343c51bbce9849561f1d6d36983e7" info_2="258d59d4b2ae9e646537365ac4a627a5" location="overlay/android_framework_res_overlay.display.product.20379.apk"
name="android_framework_res_overlay.display.product.2037A.apk" info_1="609343c51bbce9849561f1d6d36983e7" info_2="258d59d4b2ae9e646537365ac4a627a5" location="overlay/android_framework_res_overlay.display.product.2037A.apk"
name="android_framework_res_overlay.display.product.20384.apk" info_1="609343c51bbce9849561f1d6d36983e7" info_2="258d59d4b2ae9e646537365ac4a627a5" location="overlay/android_framework_res_overlay.display.product.20384.apk"
name="android_framework_res_overlay.display.product.20385.apk" info_1="609343c51bbce9849561f1d6d36983e7" info_2="258d59d4b2ae9e646537365ac4a627a5" location="overlay/android_framework_res_overlay.display.product.20385.apk"
name="android_framework_res_overlay.display.product.20386.apk" info_1="609343c51bbce9849561f1d6d36983e7" info_2="258d59d4b2ae9e646537365ac4a627a5" location="overlay/android_framework_res_overlay.display.product.20386.apk"
name="android_framework_res_overlay.display.product.20391.apk" info_1="609343c51bbce9849561f1d6d36983e7" info_2="258d59d4b2ae9e646537365ac4a627a5" location="overlay/android_framework_res_overlay.display.product.20391.apk"
name="android_framework_res_overlay.display.product.20392.apk" info_1="609343c51bbce9849561f1d6d36983e7" info_2="258d59d4b2ae9e646537365ac4a627a5" location="overlay/android_framework_res_overlay.display.product.20392.apk"
name="android_framework_res_overlay.display.product.20601.apk" info_1="609343c51bbce9849561f1d6d36983e7" info_2="258d59d4b2ae9e646537365ac4a627a5" location="overlay/android_framework_res_overlay.display.product.20601.apk"
name="android_framework_res_overlay.display.product.20602.apk" info_1="609343c51bbce9849561f1d6d36983e7" info_2="258d59d4b2ae9e646537365ac4a627a5" location="overlay/android_framework_res_overlay.display.product.20602.apk"
name="android_framework_res_overlay.display.product.20610.apk" info_1="609343c51bbce9849561f1d6d36983e7" info_2="258d59d4b2ae9e646537365ac4a627a5" location="overlay/android_framework_res_overlay.display.product.20610.apk"
name="android_framework_res_overlay.display.product.20611.apk" info_1="609343c51bbce9849561f1d6d36983e7" info_2="258d59d4b2ae9e646537365ac4a627a5" location="overlay/android_framework_res_overlay.display.product.20611.apk"
name="android_framework_res_overlay.display.product.20613.apk" info_1="609343c51bbce9849561f1d6d36983e7" info_2="258d59d4b2ae9e646537365ac4a627a5" location="overlay/android_framework_res_overlay.display.product.20613.apk"
name="android_framework_res_overlay.display.product.20619.apk" info_1="609343c51bbce9849561f1d6d36983e7" info_2="258d59d4b2ae9e646537365ac4a627a5" location="overlay/android_framework_res_overlay.display.product.20619.apk"
name="android_framework_res_overlay.display.product.20627.apk" info_1="609343c51bbce9849561f1d6d36983e7" info_2="258d59d4b2ae9e646537365ac4a627a5" location="overlay/android_framework_res_overlay.display.product.20627.apk"
name="android_framework_res_overlay.display.product.20645.apk" info_1="609343c51bbce9849561f1d6d36983e7" info_2="258d59d4b2ae9e646537365ac4a627a5" location="overlay/android_framework_res_overlay.display.product.20645.apk"
name="android_framework_res_overlay.display.product.2065C.apk" info_1="609343c51bbce9849561f1d6d36983e7" info_2="258d59d4b2ae9e646537365ac4a627a5" location="overlay/android_framework_res_overlay.display.product.2065C.apk"
name="android_framework_res_overlay.display.product.20660.apk" info_1="609343c51bbce9849561f1d6d36983e7" info_2="258d59d4b2ae9e646537365ac4a627a5" location="overlay/android_framework_res_overlay.display.product.20660.apk"
name="android_framework_res_overlay.display.product.20664.apk" info_1="609343c51bbce9849561f1d6d36983e7" info_2="258d59d4b2ae9e646537365ac4a627a5" location="overlay/android_framework_res_overlay.display.product.20664.apk"
name="android_framework_res_overlay.display.product.20669.apk" info_1="609343c51bbce9849561f1d6d36983e7" info_2="258d59d4b2ae9e646537365ac4a627a5" location="overlay/android_framework_res_overlay.display.product.20669.apk"
name="android_framework_res_overlay.display.product.20680.apk" info_1="609343c51bbce9849561f1d6d36983e7" info_2="258d59d4b2ae9e646537365ac4a627a5" location="overlay/android_framework_res_overlay.display.product.20680.apk"
name="android_framework_res_overlay.display.product.20686.apk" info_1="609343c51bbce9849561f1d6d36983e7" info_2="258d59d4b2ae9e646537365ac4a627a5" location="overlay/android_framework_res_overlay.display.product.20686.apk"
name="android_framework_res_overlay.display.product.206B1.apk" info_1="609343c51bbce9849561f1d6d36983e7" info_2="258d59d4b2ae9e646537365ac4a627a5" location="overlay/android_framework_res_overlay.display.product.206B1.apk"
name="android_framework_res_overlay.display.product.206B2.apk" info_1="609343c51bbce9849561f1d6d36983e7" info_2="258d59d4b2ae9e646537365ac4a627a5" location="overlay/android_framework_res_overlay.display.product.206B2.apk"
name="android_framework_res_overlay.display.product.206B3.apk" info_1="609343c51bbce9849561f1d6d36983e7" info_2="258d59d4b2ae9e646537365ac4a627a5" location="overlay/android_framework_res_overlay.display.product.206B3.apk"
name="android_framework_res_overlay.display.product.206B5.apk" info_1="609343c51bbce9849561f1d6d36983e7" info_2="258d59d4b2ae9e646537365ac4a627a5" location="overlay/android_framework_res_overlay.display.product.206B5.apk"
name="android_framework_res_overlay.display.product.20730.apk" info_1="609343c51bbce9849561f1d6d36983e7" info_2="258d59d4b2ae9e646537365ac4a627a5" location="overlay/android_framework_res_overlay.display.product.20730.apk"
name="android_framework_res_overlay.display.product.20731.apk" info_1="609343c51bbce9849561f1d6d36983e7" info_2="258d59d4b2ae9e646537365ac4a627a5" location="overlay/android_framework_res_overlay.display.product.20731.apk"
name="android_framework_res_overlay.display.product.20732.apk" info_1="609343c51bbce9849561f1d6d36983e7" info_2="258d59d4b2ae9e646537365ac4a627a5" location="overlay/android_framework_res_overlay.display.product.20732.apk"
name="android_framework_res_overlay.display.product.20761.apk" info_1="609343c51bbce9849561f1d6d36983e7" info_2="258d59d4b2ae9e646537365ac4a627a5" location="overlay/android_framework_res_overlay.display.product.20761.apk"
name="android_framework_res_overlay.display.product.20762.apk" info_1="609343c51bbce9849561f1d6d36983e7" info_2="258d59d4b2ae9e646537365ac4a627a5" location="overlay/android_framework_res_overlay.display.product.20762.apk"
name="android_framework_res_overlay.display.product.20764.apk" info_1="609343c51bbce9849561f1d6d36983e7" info_2="258d59d4b2ae9e646537365ac4a627a5" location="overlay/android_framework_res_overlay.display.product.20764.apk"
name="android_framework_res_overlay.display.product.20767.apk" info_1="609343c51bbce9849561f1d6d36983e7" info_2="258d59d4b2ae9e646537365ac4a627a5" location="overlay/android_framework_res_overlay.display.product.20767.apk"
name="android_framework_res_overlay.display.product.20806.apk" info_1="609343c51bbce9849561f1d6d36983e7" info_2="258d59d4b2ae9e646537365ac4a627a5" location="overlay/android_framework_res_overlay.display.product.20806.apk"
name="android_framework_res_overlay.display.product.20807.apk" info_1="609343c51bbce9849561f1d6d36983e7" info_2="258d59d4b2ae9e646537365ac4a627a5" location="overlay/android_framework_res_overlay.display.product.20807.apk"
name="android_framework_res_overlay.display.product.20808.apk" info_1="609343c51bbce9849561f1d6d36983e7" info_2="258d59d4b2ae9e646537365ac4a627a5" location="overlay/android_framework_res_overlay.display.product.20808.apk"
name="android_framework_res_overlay.display.product.20809.apk" info_1="609343c51bbce9849561f1d6d36983e7" info_2="258d59d4b2ae9e646537365ac4a627a5" location="overlay/android_framework_res_overlay.display.product.20809.apk"
name="android_framework_res_overlay.display.product.20813.apk" info_1="609343c51bbce9849561f1d6d36983e7" info_2="258d59d4b2ae9e646537365ac4a627a5" location="overlay/android_framework_res_overlay.display.product.20813.apk"
name="android_framework_res_overlay.display.product.20814.apk" info_1="609343c51bbce9849561f1d6d36983e7" info_2="258d59d4b2ae9e646537365ac4a627a5" location="overlay/android_framework_res_overlay.display.product.20814.apk"
name="android_framework_res_overlay.display.product.20818.apk" info_1="609343c51bbce9849561f1d6d36983e7" info_2="258d59d4b2ae9e646537365ac4a627a5" location="overlay/android_framework_res_overlay.display.product.20818.apk"
name="android_framework_res_overlay.display.product.20827.apk" info_1="609343c51bbce9849561f1d6d36983e7" info_2="258d59d4b2ae9e646537365ac4a627a5" location="overlay/android_framework_res_overlay.display.product.20827.apk"
name="android_framework_res_overlay.display.product.20828.apk" info_1="609343c51bbce9849561f1d6d36983e7" info_2="258d59d4b2ae9e646537365ac4a627a5" location="overlay/android_framework_res_overlay.display.product.20828.apk"
name="android_framework_res_overlay.display.product.20831.apk" info_1="609343c51bbce9849561f1d6d36983e7" info_2="258d59d4b2ae9e646537365ac4a627a5" location="overlay/android_framework_res_overlay.display.product.20831.apk"
name="android_framework_res_overlay.display.product.20838.apk" info_1="609343c51bbce9849561f1d6d36983e7" info_2="258d59d4b2ae9e646537365ac4a627a5" location="overlay/android_framework_res_overlay.display.product.20838.apk"
name="android_framework_res_overlay.display.product.2083C.apk" info_1="609343c51bbce9849561f1d6d36983e7" info_2="258d59d4b2ae9e646537365ac4a627a5" location="overlay/android_framework_res_overlay.display.product.2083C.apk"
name="android_framework_res_overlay.display.product.21015.apk" info_1="609343c51bbce9849561f1d6d36983e7" info_2="258d59d4b2ae9e646537365ac4a627a5" location="overlay/android_framework_res_overlay.display.product.21015.apk"
name="android_framework_res_overlay.display.product.21016.apk" info_1="609343c51bbce9849561f1d6d36983e7" info_2="258d59d4b2ae9e646537365ac4a627a5" location="overlay/android_framework_res_overlay.display.product.21016.apk"
name="android_framework_res_overlay.display.product.21029.apk" info_1="609343c51bbce9849561f1d6d36983e7" info_2="258d59d4b2ae9e646537365ac4a627a5" location="overlay/android_framework_res_overlay.display.product.21029.apk"
name="android_framework_res_overlay.display.product.21030.apk" info_1="609343c51bbce9849561f1d6d36983e7" info_2="258d59d4b2ae9e646537365ac4a627a5" location="overlay/android_framework_res_overlay.display.product.21030.apk"
name="android_framework_res_overlay.display.product.21031.apk" info_1="609343c51bbce9849561f1d6d36983e7" info_2="258d59d4b2ae9e646537365ac4a627a5" location="overlay/android_framework_res_overlay.display.product.21031.apk"
name="android_framework_res_overlay.display.product.21037.apk" info_1="609343c51bbce9849561f1d6d36983e7" info_2="258d59d4b2ae9e646537365ac4a627a5" location="overlay/android_framework_res_overlay.display.product.21037.apk"
name="android_framework_res_overlay.display.product.21041.apk" info_1="609343c51bbce9849561f1d6d36983e7" info_2="258d59d4b2ae9e646537365ac4a627a5" location="overlay/android_framework_res_overlay.display.product.21041.apk"
name="android_framework_res_overlay.display.product.21051.apk" info_1="609343c51bbce9849561f1d6d36983e7" info_2="258d59d4b2ae9e646537365ac4a627a5" location="overlay/android_framework_res_overlay.display.product.21051.apk"
name="android_framework_res_overlay.display.product.21061.apk" info_1="609343c51bbce9849561f1d6d36983e7" info_2="258d59d4b2ae9e646537365ac4a627a5" location="overlay/android_framework_res_overlay.display.product.21061.apk"
name="android_framework_res_overlay.display.product.21075.apk" info_1="609343c51bbce9849561f1d6d36983e7" info_2="258d59d4b2ae9e646537365ac4a627a5" location="overlay/android_framework_res_overlay.display.product.21075.apk"
name="android_framework_res_overlay.display.product.21081.apk" info_1="609343c51bbce9849561f1d6d36983e7" info_2="258d59d4b2ae9e646537365ac4a627a5" location="overlay/android_framework_res_overlay.display.product.21081.apk"
name="android_framework_res_overlay.display.product.21091.apk" info_1="609343c51bbce9849561f1d6d36983e7" info_2="258d59d4b2ae9e646537365ac4a627a5" location="overlay/android_framework_res_overlay.display.product.21091.apk"
name="android_framework_res_overlay.display.product.210A0.apk" info_1="609343c51bbce9849561f1d6d36983e7" info_2="258d59d4b2ae9e646537365ac4a627a5" location="overlay/android_framework_res_overlay.display.product.210A0.apk"
name="android_framework_res_overlay.display.product.21217.apk" info_1="609343c51bbce9849561f1d6d36983e7" info_2="258d59d4b2ae9e646537365ac4a627a5" location="overlay/android_framework_res_overlay.display.product.21217.apk"
name="android_framework_res_overlay.display.product.21218.apk" info_1="609343c51bbce9849561f1d6d36983e7" info_2="258d59d4b2ae9e646537365ac4a627a5" location="overlay/android_framework_res_overlay.display.product.21218.apk"
name="android_framework_res_overlay.display.product.21251.apk" info_1="609343c51bbce9849561f1d6d36983e7" info_2="258d59d4b2ae9e646537365ac4a627a5" location="overlay/android_framework_res_overlay.display.product.21251.apk"
name="android_framework_res_overlay.display.product.21253.apk" info_1="609343c51bbce9849561f1d6d36983e7" info_2="258d59d4b2ae9e646537365ac4a627a5" location="overlay/android_framework_res_overlay.display.product.21253.apk"
name="android_framework_res_overlay.display.product.21254.apk" info_1="609343c51bbce9849561f1d6d36983e7" info_2="258d59d4b2ae9e646537365ac4a627a5" location="overlay/android_framework_res_overlay.display.product.21254.apk"
name="android_framework_res_overlay.display.product.21261.apk" info_1="609343c51bbce9849561f1d6d36983e7" info_2="258d59d4b2ae9e646537365ac4a627a5" location="overlay/android_framework_res_overlay.display.product.21261.apk"
name="android_framework_res_overlay.display.product.21262.apk" info_1="609343c51bbce9849561f1d6d36983e7" info_2="258d59d4b2ae9e646537365ac4a627a5" location="overlay/android_framework_res_overlay.display.product.21262.apk"
name="android_framework_res_overlay.display.product.21263.apk" info_1="609343c51bbce9849561f1d6d36983e7" info_2="258d59d4b2ae9e646537365ac4a627a5" location="overlay/android_framework_res_overlay.display.product.21263.apk"
name="android_framework_res_overlay.display.product.21265.apk" info_1="609343c51bbce9849561f1d6d36983e7" info_2="258d59d4b2ae9e646537365ac4a627a5" location="overlay/android_framework_res_overlay.display.product.21265.apk"
name="android_framework_res_overlay.display.product.21266.apk" info_1="609343c51bbce9849561f1d6d36983e7" info_2="258d59d4b2ae9e646537365ac4a627a5" location="overlay/android_framework_res_overlay.display.product.21266.apk"
name="android_framework_res_overlay.display.product.21267.apk" info_1="609343c51bbce9849561f1d6d36983e7" info_2="258d59d4b2ae9e646537365ac4a627a5" location="overlay/android_framework_res_overlay.display.product.21267.apk"
name="android_framework_res_overlay.display.product.21268.apk" info_1="609343c51bbce9849561f1d6d36983e7" info_2="258d59d4b2ae9e646537365ac4a627a5" location="overlay/android_framework_res_overlay.display.product.21268.apk"
name="android_framework_res_overlay.display.product.212A1.apk" info_1="609343c51bbce9849561f1d6d36983e7" info_2="258d59d4b2ae9e646537365ac4a627a5" location="overlay/android_framework_res_overlay.display.product.212A1.apk"
name="android_framework_res_overlay.display.product.21603.apk" info_1="609343c51bbce9849561f1d6d36983e7" info_2="258d59d4b2ae9e646537365ac4a627a5" location="overlay/android_framework_res_overlay.display.product.21603.apk"
name="android_framework_res_overlay.display.product.21604.apk" info_1="609343c51bbce9849561f1d6d36983e7" info_2="258d59d4b2ae9e646537365ac4a627a5" location="overlay/android_framework_res_overlay.display.product.21604.apk"
name="android_framework_res_overlay.display.product.2161A.apk" info_1="609343c51bbce9849561f1d6d36983e7" info_2="258d59d4b2ae9e646537365ac4a627a5" location="overlay/android_framework_res_overlay.display.product.2161A.apk"
name="android_framework_res_overlay.display.product.2162D.apk" info_1="609343c51bbce9849561f1d6d36983e7" info_2="258d59d4b2ae9e646537365ac4a627a5" location="overlay/android_framework_res_overlay.display.product.2162D.apk"
name="android_framework_res_overlay.display.product.2162E.apk" info_1="609343c51bbce9849561f1d6d36983e7" info_2="258d59d4b2ae9e646537365ac4a627a5" location="overlay/android_framework_res_overlay.display.product.2162E.apk"
name="android_framework_res_overlay.display.product.21643.apk" info_1="609343c51bbce9849561f1d6d36983e7" info_2="258d59d4b2ae9e646537365ac4a627a5" location="overlay/android_framework_res_overlay.display.product.21643.apk"
name="android_framework_res_overlay.display.product.21644.apk" info_1="609343c51bbce9849561f1d6d36983e7" info_2="258d59d4b2ae9e646537365ac4a627a5" location="overlay/android_framework_res_overlay.display.product.21644.apk"
name="android_framework_res_overlay.display.product.21645.apk" info_1="609343c51bbce9849561f1d6d36983e7" info_2="258d59d4b2ae9e646537365ac4a627a5" location="overlay/android_framework_res_overlay.display.product.21645.apk"
name="android_framework_res_overlay.display.product.21675.apk" info_1="609343c51bbce9849561f1d6d36983e7" info_2="258d59d4b2ae9e646537365ac4a627a5" location="overlay/android_framework_res_overlay.display.product.21675.apk"
name="android_framework_res_overlay.display.product.21676.apk" info_1="609343c51bbce9849561f1d6d36983e7" info_2="258d59d4b2ae9e646537365ac4a627a5" location="overlay/android_framework_res_overlay.display.product.21676.apk"
name="android_framework_res_overlay.display.product.2167A.apk" info_1="609343c51bbce9849561f1d6d36983e7" info_2="258d59d4b2ae9e646537365ac4a627a5" location="overlay/android_framework_res_overlay.display.product.2167A.apk"
name="android_framework_res_overlay.display.product.2167B.apk" info_1="609343c51bbce9849561f1d6d36983e7" info_2="258d59d4b2ae9e646537365ac4a627a5" location="overlay/android_framework_res_overlay.display.product.2167B.apk"
name="android_framework_res_overlay.display.product.2167C.apk" info_1="609343c51bbce9849561f1d6d36983e7" info_2="258d59d4b2ae9e646537365ac4a627a5" location="overlay/android_framework_res_overlay.display.product.2167C.apk"
name="android_framework_res_overlay.display.product.2167D.apk" info_1="609343c51bbce9849561f1d6d36983e7" info_2="258d59d4b2ae9e646537365ac4a627a5" location="overlay/android_framework_res_overlay.display.product.2167D.apk"
name="android_framework_res_overlay.display.product.21684.apk" info_1="609343c51bbce9849561f1d6d36983e7" info_2="258d59d4b2ae9e646537365ac4a627a5" location="overlay/android_framework_res_overlay.display.product.21684.apk"
name="android_framework_res_overlay.display.product.21685.apk" info_1="609343c51bbce9849561f1d6d36983e7" info_2="258d59d4b2ae9e646537365ac4a627a5" location="overlay/android_framework_res_overlay.display.product.21685.apk"
name="android_framework_res_overlay.display.product.21686.apk" info_1="609343c51bbce9849561f1d6d36983e7" info_2="258d59d4b2ae9e646537365ac4a627a5" location="overlay/android_framework_res_overlay.display.product.21686.apk"
name="android_framework_res_overlay.display.product.21690.apk" info_1="609343c51bbce9849561f1d6d36983e7" info_2="258d59d4b2ae9e646537365ac4a627a5" location="overlay/android_framework_res_overlay.display.product.21690.apk"
name="android_framework_res_overlay.display.product.21691.apk" info_1="609343c51bbce9849561f1d6d36983e7" info_2="258d59d4b2ae9e646537365ac4a627a5" location="overlay/android_framework_res_overlay.display.product.21691.apk"
name="android_framework_res_overlay.display.product.21692.apk" info_1="609343c51bbce9849561f1d6d36983e7" info_2="258d59d4b2ae9e646537365ac4a627a5" location="overlay/android_framework_res_overlay.display.product.21692.apk"
name="android_framework_res_overlay.display.product.2169E.apk" info_1="609343c51bbce9849561f1d6d36983e7" info_2="258d59d4b2ae9e646537365ac4a627a5" location="overlay/android_framework_res_overlay.display.product.2169E.apk"
name="android_framework_res_overlay.display.product.2169F.apk" info_1="609343c51bbce9849561f1d6d36983e7" info_2="258d59d4b2ae9e646537365ac4a627a5" location="overlay/android_framework_res_overlay.display.product.2169F.apk"
name="android_framework_res_overlay.display.product.216AF.apk" info_1="609343c51bbce9849561f1d6d36983e7" info_2="258d59d4b2ae9e646537365ac4a627a5" location="overlay/android_framework_res_overlay.display.product.216AF.apk"
name="android_framework_res_overlay.display.product.216B0.apk" info_1="609343c51bbce9849561f1d6d36983e7" info_2="258d59d4b2ae9e646537365ac4a627a5" location="overlay/android_framework_res_overlay.display.product.216B0.apk"
name="android_framework_res_overlay.display.product.216B1.apk" info_1="609343c51bbce9849561f1d6d36983e7" info_2="258d59d4b2ae9e646537365ac4a627a5" location="overlay/android_framework_res_overlay.display.product.216B1.apk"
name="android_framework_res_overlay.display.product.216C1.apk" info_1="609343c51bbce9849561f1d6d36983e7" info_2="258d59d4b2ae9e646537365ac4a627a5" location="overlay/android_framework_res_overlay.display.product.216C1.apk"
name="android_framework_res_overlay.display.product.216C2.apk" info_1="609343c51bbce9849561f1d6d36983e7" info_2="258d59d4b2ae9e646537365ac4a627a5" location="overlay/android_framework_res_overlay.display.product.216C2.apk"
name="android_framework_res_overlay.display.product.216C3.apk" info_1="609343c51bbce9849561f1d6d36983e7" info_2="258d59d4b2ae9e646537365ac4a627a5" location="overlay/android_framework_res_overlay.display.product.216C3.apk"
name="android_framework_res_overlay.display.product.216C4.apk" info_1="609343c51bbce9849561f1d6d36983e7" info_2="258d59d4b2ae9e646537365ac4a627a5" location="overlay/android_framework_res_overlay.display.product.216C4.apk"
name="android_framework_res_overlay.display.product.216C5.apk" info_1="609343c51bbce9849561f1d6d36983e7" info_2="258d59d4b2ae9e646537365ac4a627a5" location="overlay/android_framework_res_overlay.display.product.216C5.apk"
name="android_framework_res_overlay.display.product.216C9.apk" info_1="609343c51bbce9849561f1d6d36983e7" info_2="258d59d4b2ae9e646537365ac4a627a5" location="overlay/android_framework_res_overlay.display.product.216C9.apk"
name="android_framework_res_overlay.display.product.216CA.apk" info_1="609343c51bbce9849561f1d6d36983e7" info_2="258d59d4b2ae9e646537365ac4a627a5" location="overlay/android_framework_res_overlay.display.product.216CA.apk"
name="android_framework_res_overlay.display.product.216CB.apk" info_1="609343c51bbce9849561f1d6d36983e7" info_2="258d59d4b2ae9e646537365ac4a627a5" location="overlay/android_framework_res_overlay.display.product.216CB.apk"
name="android_framework_res_overlay.display.product.21711.apk" info_1="609343c51bbce9849561f1d6d36983e7" info_2="258d59d4b2ae9e646537365ac4a627a5" location="overlay/android_framework_res_overlay.display.product.21711.apk"
name="android_framework_res_overlay.display.product.21712.apk" info_1="609343c51bbce9849561f1d6d36983e7" info_2="258d59d4b2ae9e646537365ac4a627a5" location="overlay/android_framework_res_overlay.display.product.21712.apk"
name="android_framework_res_overlay.multiuser.maxuser.apk" info_1="609343c51bbce9849561f1d6d36983e7" info_2="258d59d4b2ae9e646537365ac4a627a5" location="overlay/android_framework_res_overlay.multiuser.maxuser.apk"
name="android_framework_res_rro_export_oneplus.apk" info_1="609343c51bbce9849561f1d6d36983e7" info_2="258d59d4b2ae9e646537365ac4a627a5" location="overlay/android_framework_res_rro_export_oneplus.apk"
name="aon_framework_res_overlay.display.product.apk" info_1="609343c51bbce9849561f1d6d36983e7" info_2="258d59d4b2ae9e646537365ac4a627a5" location="overlay/aon_framework_res_overlay.display.product.apk"
name="framework_res_overlay.20001.apk" info_1="609343c51bbce9849561f1d6d36983e7" info_2="258d59d4b2ae9e646537365ac4a627a5" location="overlay/framework_res_overlay.20001.apk"
name="framework_res_overlay.20682.apk" info_1="609343c51bbce9849561f1d6d36983e7" info_2="258d59d4b2ae9e646537365ac4a627a5" location="overlay/framework_res_overlay.20682.apk"
name="framework_res_overlay.20683.apk" info_1="609343c51bbce9849561f1d6d36983e7" info_2="258d59d4b2ae9e646537365ac4a627a5" location="overlay/framework_res_overlay.20683.apk"
name="framework_res_overlay.20684.apk" info_1="609343c51bbce9849561f1d6d36983e7" info_2="258d59d4b2ae9e646537365ac4a627a5" location="overlay/framework_res_overlay.20684.apk"
name="framework_res_overlay.20685.apk" info_1="609343c51bbce9849561f1d6d36983e7" info_2="258d59d4b2ae9e646537365ac4a627a5" location="overlay/framework_res_overlay.20685.apk"
name="framework_res_overlay.20689.apk" info_1="609343c51bbce9849561f1d6d36983e7" info_2="258d59d4b2ae9e646537365ac4a627a5" location="overlay/framework_res_overlay.20689.apk"
name="framework_res_overlay.2068A.apk" info_1="609343c51bbce9849561f1d6d36983e7" info_2="258d59d4b2ae9e646537365ac4a627a5" location="overlay/framework_res_overlay.2068A.apk"
name="framework_res_overlay.2068B.apk" info_1="609343c51bbce9849561f1d6d36983e7" info_2="258d59d4b2ae9e646537365ac4a627a5" location="overlay/framework_res_overlay.2068B.apk"
name="framework_res_overlay.20741.apk" info_1="609343c51bbce9849561f1d6d36983e7" info_2="258d59d4b2ae9e646537365ac4a627a5" location="overlay/framework_res_overlay.20741.apk"
name="framework_res_overlay.20743.apk" info_1="609343c51bbce9849561f1d6d36983e7" info_2="258d59d4b2ae9e646537365ac4a627a5" location="overlay/framework_res_overlay.20743.apk"
name="framework_res_overlay.network.20161.apk" info_1="609343c51bbce9849561f1d6d36983e7" info_2="258d59d4b2ae9e646537365ac4a627a5" location="overlay/framework_res_overlay.network.20161.apk"
name="framework_res_overlay.network.20351.apk" info_1="609343c51bbce9849561f1d6d36983e7" info_2="258d59d4b2ae9e646537365ac4a627a5" location="overlay/framework_res_overlay.network.20351.apk"
name="framework_res_overlay.network.20846.apk" info_1="609343c51bbce9849561f1d6d36983e7" info_2="258d59d4b2ae9e646537365ac4a627a5" location="overlay/framework_res_overlay.network.20846.apk"
name="framework_res_overlay.network.20847.apk" info_1="609343c51bbce9849561f1d6d36983e7" info_2="258d59d4b2ae9e646537365ac4a627a5" location="overlay/framework_res_overlay.network.20847.apk"
name="framework_res_overlay.network.20848.apk" info_1="609343c51bbce9849561f1d6d36983e7" info_2="258d59d4b2ae9e646537365ac4a627a5" location="overlay/framework_res_overlay.network.20848.apk"
name="framework_res_overlay.network.20866.apk" info_1="609343c51bbce9849561f1d6d36983e7" info_2="258d59d4b2ae9e646537365ac4a627a5" location="overlay/framework_res_overlay.network.20866.apk"
name="framework_res_overlay.network.20867.apk" info_1="609343c51bbce9849561f1d6d36983e7" info_2="258d59d4b2ae9e646537365ac4a627a5" location="overlay/framework_res_overlay.network.20867.apk"
name="framework_res_overlay.network.21001.apk" info_1="609343c51bbce9849561f1d6d36983e7" info_2="258d59d4b2ae9e646537365ac4a627a5" location="overlay/framework_res_overlay.network.21001.apk"
name="framework_res_overlay.network.21009.apk" info_1="609343c51bbce9849561f1d6d36983e7" info_2="258d59d4b2ae9e646537365ac4a627a5" location="overlay/framework_res_overlay.network.21009.apk"
name="framework_res_overlay.network.21029.apk" info_1="609343c51bbce9849561f1d6d36983e7" info_2="258d59d4b2ae9e646537365ac4a627a5" location="overlay/framework_res_overlay.network.21029.apk"
name="framework_res_overlay.network.21030.apk" info_1="609343c51bbce9849561f1d6d36983e7" info_2="258d59d4b2ae9e646537365ac4a627a5" location="overlay/framework_res_overlay.network.21030.apk"
name="framework_res_overlay.network.21125.apk" info_1="609343c51bbce9849561f1d6d36983e7" info_2="258d59d4b2ae9e646537365ac4a627a5" location="overlay/framework_res_overlay.network.21125.apk"
name="framework_res_overlay.network.21166.apk" info_1="609343c51bbce9849561f1d6d36983e7" info_2="258d59d4b2ae9e646537365ac4a627a5" location="overlay/framework_res_overlay.network.21166.apk"
name="framework_res_overlay.network.21605.apk" info_1="609343c51bbce9849561f1d6d36983e7" info_2="258d59d4b2ae9e646537365ac4a627a5" location="overlay/framework_res_overlay.network.21605.apk"
name="framework_res_overlay.network.21606.apk" info_1="609343c51bbce9849561f1d6d36983e7" info_2="258d59d4b2ae9e646537365ac4a627a5" location="overlay/framework_res_overlay.network.21606.apk"
name="framework_res_overlay.network.21631.apk" info_1="609343c51bbce9849561f1d6d36983e7" info_2="258d59d4b2ae9e646537365ac4a627a5" location="overlay/framework_res_overlay.network.21631.apk"
name="framework_res_overlay.network.21841.apk" info_1="609343c51bbce9849561f1d6d36983e7" info_2="258d59d4b2ae9e646537365ac4a627a5" location="overlay/framework_res_overlay.network.21841.apk"
name="framework_res_overlay.network.21842.apk" info_1="609343c51bbce9849561f1d6d36983e7" info_2="258d59d4b2ae9e646537365ac4a627a5" location="overlay/framework_res_overlay.network.21842.apk"
name="framework_res_overlay.network.21989.apk" info_1="609343c51bbce9849561f1d6d36983e7" info_2="258d59d4b2ae9e646537365ac4a627a5" location="overlay/framework_res_overlay.network.21989.apk"
name="framework_res_overlay.network.eva.21147.apk" info_1="609343c51bbce9849561f1d6d36983e7" info_2="258d59d4b2ae9e646537365ac4a627a5" location="overlay/framework_res_overlay.network.eva.21147.apk"
name="framework_res_overlay.network.fussi.19813.apk" info_1="609343c51bbce9849561f1d6d36983e7" info_2="258d59d4b2ae9e646537365ac4a627a5" location="overlay/framework_res_overlay.network.fussi.19813.apk"
name="framework_res_overlay.network.fussi.19815.apk" info_1="609343c51bbce9849561f1d6d36983e7" info_2="258d59d4b2ae9e646537365ac4a627a5" location="overlay/framework_res_overlay.network.fussi.19815.apk"
name="framework_res_overlay.network.fussi.19823.apk" info_1="609343c51bbce9849561f1d6d36983e7" info_2="258d59d4b2ae9e646537365ac4a627a5" location="overlay/framework_res_overlay.network.fussi.19823.apk"
name="framework_res_overlay.network.fussi.19825.apk" info_1="609343c51bbce9849561f1d6d36983e7" info_2="258d59d4b2ae9e646537365ac4a627a5" location="overlay/framework_res_overlay.network.fussi.19825.apk"
name="framework_res_overlay.network.fussi.19855.apk" info_1="609343c51bbce9849561f1d6d36983e7" info_2="258d59d4b2ae9e646537365ac4a627a5" location="overlay/framework_res_overlay.network.fussi.19855.apk"
name="framework_res_overlay.network.fussi.20311.apk" info_1="609343c51bbce9849561f1d6d36983e7" info_2="258d59d4b2ae9e646537365ac4a627a5" location="overlay/framework_res_overlay.network.fussi.20311.apk"
name="framework_res_overlay.network.fussi.20806.apk" info_1="609343c51bbce9849561f1d6d36983e7" info_2="258d59d4b2ae9e646537365ac4a627a5" location="overlay/framework_res_overlay.network.fussi.20806.apk"
name="framework_res_overlay.network.fussi.20809.apk" info_1="609343c51bbce9849561f1d6d36983e7" info_2="258d59d4b2ae9e646537365ac4a627a5" location="overlay/framework_res_overlay.network.fussi.20809.apk"
name="framework_res_overlay.network.fussi.20818.apk" info_1="609343c51bbce9849561f1d6d36983e7" info_2="258d59d4b2ae9e646537365ac4a627a5" location="overlay/framework_res_overlay.network.fussi.20818.apk"
name="framework_res_overlay.network.fussi.20828.apk" info_1="609343c51bbce9849561f1d6d36983e7" info_2="258d59d4b2ae9e646537365ac4a627a5" location="overlay/framework_res_overlay.network.fussi.20828.apk"
name="framework_res_overlay.network.fussi.2083C.apk" info_1="609343c51bbce9849561f1d6d36983e7" info_2="258d59d4b2ae9e646537365ac4a627a5" location="overlay/framework_res_overlay.network.fussi.2083C.apk"
name="framework_res_overlay.network.fussi.2084A.apk" info_1="609343c51bbce9849561f1d6d36983e7" info_2="258d59d4b2ae9e646537365ac4a627a5" location="overlay/framework_res_overlay.network.fussi.2084A.apk"
name="framework_res_overlay.network.fussi.20853.apk" info_1="609343c51bbce9849561f1d6d36983e7" info_2="258d59d4b2ae9e646537365ac4a627a5" location="overlay/framework_res_overlay.network.fussi.20853.apk"
name="framework_res_overlay.network.fussi.20854.apk" info_1="609343c51bbce9849561f1d6d36983e7" info_2="258d59d4b2ae9e646537365ac4a627a5" location="overlay/framework_res_overlay.network.fussi.20854.apk"
name="framework_res_overlay.network.fussi.20859.apk" info_1="609343c51bbce9849561f1d6d36983e7" info_2="258d59d4b2ae9e646537365ac4a627a5" location="overlay/framework_res_overlay.network.fussi.20859.apk"
name="framework_res_overlay.network.fussi.2085A.apk" info_1="609343c51bbce9849561f1d6d36983e7" info_2="258d59d4b2ae9e646537365ac4a627a5" location="overlay/framework_res_overlay.network.fussi.2085A.apk"
name="framework_res_overlay.network.fussi.21051.apk" info_1="609343c51bbce9849561f1d6d36983e7" info_2="258d59d4b2ae9e646537365ac4a627a5" location="overlay/framework_res_overlay.network.fussi.21051.apk"
name="framework_res_overlay.network.luwu.21005.apk" info_1="609343c51bbce9849561f1d6d36983e7" info_2="258d59d4b2ae9e646537365ac4a627a5" location="overlay/framework_res_overlay.network.luwu.21005.apk"
name="framework_res_overlay.network.luwu.21205.apk" info_1="609343c51bbce9849561f1d6d36983e7" info_2="258d59d4b2ae9e646537365ac4a627a5" location="overlay/framework_res_overlay.network.luwu.21205.apk"
name="framework_res_overlay.network.peacock.apk" info_1="609343c51bbce9849561f1d6d36983e7" info_2="258d59d4b2ae9e646537365ac4a627a5" location="overlay/framework_res_overlay.network.peacock.apk"
name="framework_res_overlay_Network.oplus6877.apk" info_1="609343c51bbce9849561f1d6d36983e7" info_2="258d59d4b2ae9e646537365ac4a627a5" location="overlay/framework_res_overlay_Network.oplus6877.apk"
name="framework_res_overlay_Network.oppo6853.apk" info_1="609343c51bbce9849561f1d6d36983e7" info_2="258d59d4b2ae9e646537365ac4a627a5" location="overlay/framework_res_overlay_Network.oppo6853.apk"
name="oplus_framework_res_overlay.display.product.19015.apk" info_1="609343c51bbce9849561f1d6d36983e7" info_2="258d59d4b2ae9e646537365ac4a627a5" location="overlay/oplus_framework_res_overlay.display.product.19015.apk"
name="oplus_framework_res_overlay.display.product.19016.apk" info_1="609343c51bbce9849561f1d6d36983e7" info_2="258d59d4b2ae9e646537365ac4a627a5" location="overlay/oplus_framework_res_overlay.display.product.19016.apk"
name="oplus_framework_res_overlay.display.product.19101.apk" info_1="609343c51bbce9849561f1d6d36983e7" info_2="258d59d4b2ae9e646537365ac4a627a5" location="overlay/oplus_framework_res_overlay.display.product.19101.apk"
name="oplus_framework_res_overlay.display.product.19125.apk" info_1="609343c51bbce9849561f1d6d36983e7" info_2="258d59d4b2ae9e646537365ac4a627a5" location="overlay/oplus_framework_res_overlay.display.product.19125.apk"
name="oplus_framework_res_overlay.display.product.19126.apk" info_1="609343c51bbce9849561f1d6d36983e7" info_2="258d59d4b2ae9e646537365ac4a627a5" location="overlay/oplus_framework_res_overlay.display.product.19126.apk"
name="oplus_framework_res_overlay.display.product.19127.apk" info_1="609343c51bbce9849561f1d6d36983e7" info_2="258d59d4b2ae9e646537365ac4a627a5" location="overlay/oplus_framework_res_overlay.display.product.19127.apk"
name="oplus_framework_res_overlay.display.product.19128.apk" info_1="609343c51bbce9849561f1d6d36983e7" info_2="258d59d4b2ae9e646537365ac4a627a5" location="overlay/oplus_framework_res_overlay.display.product.19128.apk"
name="oplus_framework_res_overlay.display.product.19161.apk" info_1="609343c51bbce9849561f1d6d36983e7" info_2="258d59d4b2ae9e646537365ac4a627a5" location="overlay/oplus_framework_res_overlay.display.product.19161.apk"
name="oplus_framework_res_overlay.display.product.19163.apk" info_1="609343c51bbce9849561f1d6d36983e7" info_2="258d59d4b2ae9e646537365ac4a627a5" location="overlay/oplus_framework_res_overlay.display.product.19163.apk"
name="oplus_framework_res_overlay.display.product.19165.apk" info_1="609343c51bbce9849561f1d6d36983e7" info_2="258d59d4b2ae9e646537365ac4a627a5" location="overlay/oplus_framework_res_overlay.display.product.19165.apk"
name="oplus_framework_res_overlay.display.product.19191.apk" info_1="609343c51bbce9849561f1d6d36983e7" info_2="258d59d4b2ae9e646537365ac4a627a5" location="overlay/oplus_framework_res_overlay.display.product.19191.apk"
name="oplus_framework_res_overlay.display.product.19192.apk" info_1="609343c51bbce9849561f1d6d36983e7" info_2="258d59d4b2ae9e646537365ac4a627a5" location="overlay/oplus_framework_res_overlay.display.product.19192.apk"
name="oplus_framework_res_overlay.display.product.19354.apk" info_1="609343c51bbce9849561f1d6d36983e7" info_2="258d59d4b2ae9e646537365ac4a627a5" location="overlay/oplus_framework_res_overlay.display.product.19354.apk"
name="oplus_framework_res_overlay.display.product.19358.apk" info_1="609343c51bbce9849561f1d6d36983e7" info_2="258d59d4b2ae9e646537365ac4a627a5" location="overlay/oplus_framework_res_overlay.display.product.19358.apk"
name="oplus_framework_res_overlay.display.product.19359.apk" info_1="609343c51bbce9849561f1d6d36983e7" info_2="258d59d4b2ae9e646537365ac4a627a5" location="overlay/oplus_framework_res_overlay.display.product.19359.apk"
name="oplus_framework_res_overlay.display.product.19501.apk" info_1="609343c51bbce9849561f1d6d36983e7" info_2="258d59d4b2ae9e646537365ac4a627a5" location="overlay/oplus_framework_res_overlay.display.product.19501.apk"
name="oplus_framework_res_overlay.display.product.19521.apk" info_1="609343c51bbce9849561f1d6d36983e7" info_2="258d59d4b2ae9e646537365ac4a627a5" location="overlay/oplus_framework_res_overlay.display.product.19521.apk"
name="oplus_framework_res_overlay.display.product.19525.apk" info_1="609343c51bbce9849561f1d6d36983e7" info_2="258d59d4b2ae9e646537365ac4a627a5" location="overlay/oplus_framework_res_overlay.display.product.19525.apk"
name="oplus_framework_res_overlay.display.product.19591.apk" info_1="609343c51bbce9849561f1d6d36983e7" info_2="258d59d4b2ae9e646537365ac4a627a5" location="overlay/oplus_framework_res_overlay.display.product.19591.apk"
name="oplus_framework_res_overlay.display.product.19805.apk" info_1="609343c51bbce9849561f1d6d36983e7" info_2="258d59d4b2ae9e646537365ac4a627a5" location="overlay/oplus_framework_res_overlay.display.product.19805.apk"
name="oplus_framework_res_overlay.display.product.19811.apk" info_1="609343c51bbce9849561f1d6d36983e7" info_2="258d59d4b2ae9e646537365ac4a627a5" location="overlay/oplus_framework_res_overlay.display.product.19811.apk"
name="oplus_framework_res_overlay.display.product.19813.apk" info_1="609343c51bbce9849561f1d6d36983e7" info_2="258d59d4b2ae9e646537365ac4a627a5" location="overlay/oplus_framework_res_overlay.display.product.19813.apk"
name="oplus_framework_res_overlay.display.product.19821.apk" info_1="609343c51bbce9849561f1d6d36983e7" info_2="258d59d4b2ae9e646537365ac4a627a5" location="overlay/oplus_framework_res_overlay.display.product.19821.apk"
name="oplus_framework_res_overlay.display.product.19823.apk" info_1="609343c51bbce9849561f1d6d36983e7" info_2="258d59d4b2ae9e646537365ac4a627a5" location="overlay/oplus_framework_res_overlay.display.product.19823.apk"
name="oplus_framework_res_overlay.display.product.19835.apk" info_1="609343c51bbce9849561f1d6d36983e7" info_2="258d59d4b2ae9e646537365ac4a627a5" location="overlay/oplus_framework_res_overlay.display.product.19835.apk"
name="oplus_framework_res_overlay.display.product.19837.apk" info_1="609343c51bbce9849561f1d6d36983e7" info_2="258d59d4b2ae9e646537365ac4a627a5" location="overlay/oplus_framework_res_overlay.display.product.19837.apk"
name="oplus_framework_res_overlay.display.product.19839.apk" info_1="609343c51bbce9849561f1d6d36983e7" info_2="258d59d4b2ae9e646537365ac4a627a5" location="overlay/oplus_framework_res_overlay.display.product.19839.apk"
name="oplus_framework_res_overlay.display.product.19841.apk" info_1="609343c51bbce9849561f1d6d36983e7" info_2="258d59d4b2ae9e646537365ac4a627a5" location="overlay/oplus_framework_res_overlay.display.product.19841.apk"
name="oplus_framework_res_overlay.display.product.19855.apk" info_1="609343c51bbce9849561f1d6d36983e7" info_2="258d59d4b2ae9e646537365ac4a627a5" location="overlay/oplus_framework_res_overlay.display.product.19855.apk"
name="oplus_framework_res_overlay.display.product.20057.apk" info_1="609343c51bbce9849561f1d6d36983e7" info_2="258d59d4b2ae9e646537365ac4a627a5" location="overlay/oplus_framework_res_overlay.display.product.20057.apk"
name="oplus_framework_res_overlay.display.product.20058.apk" info_1="609343c51bbce9849561f1d6d36983e7" info_2="258d59d4b2ae9e646537365ac4a627a5" location="overlay/oplus_framework_res_overlay.display.product.20058.apk"
name="oplus_framework_res_overlay.display.product.20111.apk" info_1="609343c51bbce9849561f1d6d36983e7" info_2="258d59d4b2ae9e646537365ac4a627a5" location="overlay/oplus_framework_res_overlay.display.product.20111.apk"
name="oplus_framework_res_overlay.display.product.20113.apk" info_1="609343c51bbce9849561f1d6d36983e7" info_2="258d59d4b2ae9e646537365ac4a627a5" location="overlay/oplus_framework_res_overlay.display.product.20113.apk"
name="oplus_framework_res_overlay.display.product.20127.apk" info_1="609343c51bbce9849561f1d6d36983e7" info_2="258d59d4b2ae9e646537365ac4a627a5" location="overlay/oplus_framework_res_overlay.display.product.20127.apk"
name="oplus_framework_res_overlay.display.product.20135.apk" info_1="609343c51bbce9849561f1d6d36983e7" info_2="258d59d4b2ae9e646537365ac4a627a5" location="overlay/oplus_framework_res_overlay.display.product.20135.apk"
name="oplus_framework_res_overlay.display.product.20139.apk" info_1="609343c51bbce9849561f1d6d36983e7" info_2="258d59d4b2ae9e646537365ac4a627a5" location="overlay/oplus_framework_res_overlay.display.product.20139.apk"
name="oplus_framework_res_overlay.display.product.20207.apk" info_1="609343c51bbce9849561f1d6d36983e7" info_2="258d59d4b2ae9e646537365ac4a627a5" location="overlay/oplus_framework_res_overlay.display.product.20207.apk"
name="oplus_framework_res_overlay.display.product.20208.apk" info_1="609343c51bbce9849561f1d6d36983e7" info_2="258d59d4b2ae9e646537365ac4a627a5" location="overlay/oplus_framework_res_overlay.display.product.20208.apk"
name="oplus_framework_res_overlay.display.product.20211.apk" info_1="609343c51bbce9849561f1d6d36983e7" info_2="258d59d4b2ae9e646537365ac4a627a5" location="overlay/oplus_framework_res_overlay.display.product.20211.apk"
name="oplus_framework_res_overlay.display.product.20212.apk" info_1="609343c51bbce9849561f1d6d36983e7" info_2="258d59d4b2ae9e646537365ac4a627a5" location="overlay/oplus_framework_res_overlay.display.product.20212.apk"
name="oplus_framework_res_overlay.display.product.20213.apk" info_1="609343c51bbce9849561f1d6d36983e7" info_2="258d59d4b2ae9e646537365ac4a627a5" location="overlay/oplus_framework_res_overlay.display.product.20213.apk"
name="oplus_framework_res_overlay.display.product.20214.apk" info_1="609343c51bbce9849561f1d6d36983e7" info_2="258d59d4b2ae9e646537365ac4a627a5" location="overlay/oplus_framework_res_overlay.display.product.20214.apk"
name="oplus_framework_res_overlay.display.product.20215.apk" info_1="609343c51bbce9849561f1d6d36983e7" info_2="258d59d4b2ae9e646537365ac4a627a5" location="overlay/oplus_framework_res_overlay.display.product.20215.apk"
name="oplus_framework_res_overlay.display.product.20221.apk" info_1="609343c51bbce9849561f1d6d36983e7" info_2="258d59d4b2ae9e646537365ac4a627a5" location="overlay/oplus_framework_res_overlay.display.product.20221.apk"
name="oplus_framework_res_overlay.display.product.20222.apk" info_1="609343c51bbce9849561f1d6d36983e7" info_2="258d59d4b2ae9e646537365ac4a627a5" location="overlay/oplus_framework_res_overlay.display.product.20222.apk"
name="oplus_framework_res_overlay.display.product.20223.apk" info_1="609343c51bbce9849561f1d6d36983e7" info_2="258d59d4b2ae9e646537365ac4a627a5" location="overlay/oplus_framework_res_overlay.display.product.20223.apk"
name="oplus_framework_res_overlay.display.product.20224.apk" info_1="609343c51bbce9849561f1d6d36983e7" info_2="258d59d4b2ae9e646537365ac4a627a5" location="overlay/oplus_framework_res_overlay.display.product.20224.apk"
name="oplus_framework_res_overlay.display.product.20225.apk" info_1="609343c51bbce9849561f1d6d36983e7" info_2="258d59d4b2ae9e646537365ac4a627a5" location="overlay/oplus_framework_res_overlay.display.product.20225.apk"
name="oplus_framework_res_overlay.display.product.20226.apk" info_1="609343c51bbce9849561f1d6d36983e7" info_2="258d59d4b2ae9e646537365ac4a627a5" location="overlay/oplus_framework_res_overlay.display.product.20226.apk"
name="oplus_framework_res_overlay.display.product.20227.apk" info_1="609343c51bbce9849561f1d6d36983e7" info_2="258d59d4b2ae9e646537365ac4a627a5" location="overlay/oplus_framework_res_overlay.display.product.20227.apk"
name="oplus_framework_res_overlay.display.product.20228.apk" info_1="609343c51bbce9849561f1d6d36983e7" info_2="258d59d4b2ae9e646537365ac4a627a5" location="overlay/oplus_framework_res_overlay.display.product.20228.apk"
name="oplus_framework_res_overlay.display.product.20229.apk" info_1="609343c51bbce9849561f1d6d36983e7" info_2="258d59d4b2ae9e646537365ac4a627a5" location="overlay/oplus_framework_res_overlay.display.product.20229.apk"
name="oplus_framework_res_overlay.display.product.20235.apk" info_1="609343c51bbce9849561f1d6d36983e7" info_2="258d59d4b2ae9e646537365ac4a627a5" location="overlay/oplus_framework_res_overlay.display.product.20235.apk"
name="oplus_framework_res_overlay.display.product.20241.apk" info_1="609343c51bbce9849561f1d6d36983e7" info_2="258d59d4b2ae9e646537365ac4a627a5" location="overlay/oplus_framework_res_overlay.display.product.20241.apk"
name="oplus_framework_res_overlay.display.product.20242.apk" info_1="609343c51bbce9849561f1d6d36983e7" info_2="258d59d4b2ae9e646537365ac4a627a5" location="overlay/oplus_framework_res_overlay.display.product.20242.apk"
name="oplus_framework_res_overlay.display.product.20243.apk" info_1="609343c51bbce9849561f1d6d36983e7" info_2="258d59d4b2ae9e646537365ac4a627a5" location="overlay/oplus_framework_res_overlay.display.product.20243.apk"
name="oplus_framework_res_overlay.display.product.20245.apk" info_1="609343c51bbce9849561f1d6d36983e7" info_2="258d59d4b2ae9e646537365ac4a627a5" location="overlay/oplus_framework_res_overlay.display.product.20245.apk"
name="oplus_framework_res_overlay.display.product.20246.apk" info_1="609343c51bbce9849561f1d6d36983e7" info_2="258d59d4b2ae9e646537365ac4a627a5" location="overlay/oplus_framework_res_overlay.display.product.20246.apk"
name="oplus_framework_res_overlay.display.product.20247.apk" info_1="609343c51bbce9849561f1d6d36983e7" info_2="258d59d4b2ae9e646537365ac4a627a5" location="overlay/oplus_framework_res_overlay.display.product.20247.apk"
name="oplus_framework_res_overlay.display.product.20248.apk" info_1="609343c51bbce9849561f1d6d36983e7" info_2="258d59d4b2ae9e646537365ac4a627a5" location="overlay/oplus_framework_res_overlay.display.product.20248.apk"
name="oplus_framework_res_overlay.display.product.20251.apk" info_1="609343c51bbce9849561f1d6d36983e7" info_2="258d59d4b2ae9e646537365ac4a627a5" location="overlay/oplus_framework_res_overlay.display.product.20251.apk"
name="oplus_framework_res_overlay.display.product.20267.apk" info_1="609343c51bbce9849561f1d6d36983e7" info_2="258d59d4b2ae9e646537365ac4a627a5" location="overlay/oplus_framework_res_overlay.display.product.20267.apk"
name="oplus_framework_res_overlay.display.product.20268.apk" info_1="609343c51bbce9849561f1d6d36983e7" info_2="258d59d4b2ae9e646537365ac4a627a5" location="overlay/oplus_framework_res_overlay.display.product.20268.apk"
name="oplus_framework_res_overlay.display.product.20291.apk" info_1="609343c51bbce9849561f1d6d36983e7" info_2="258d59d4b2ae9e646537365ac4a627a5" location="overlay/oplus_framework_res_overlay.display.product.20291.apk"
name="oplus_framework_res_overlay.display.product.20292.apk" info_1="609343c51bbce9849561f1d6d36983e7" info_2="258d59d4b2ae9e646537365ac4a627a5" location="overlay/oplus_framework_res_overlay.display.product.20292.apk"
name="oplus_framework_res_overlay.display.product.20293.apk" info_1="609343c51bbce9849561f1d6d36983e7" info_2="258d59d4b2ae9e646537365ac4a627a5" location="overlay/oplus_framework_res_overlay.display.product.20293.apk"
name="oplus_framework_res_overlay.display.product.20294.apk" info_1="609343c51bbce9849561f1d6d36983e7" info_2="258d59d4b2ae9e646537365ac4a627a5" location="overlay/oplus_framework_res_overlay.display.product.20294.apk"
name="oplus_framework_res_overlay.display.product.20295.apk" info_1="609343c51bbce9849561f1d6d36983e7" info_2="258d59d4b2ae9e646537365ac4a627a5" location="overlay/oplus_framework_res_overlay.display.product.20295.apk"
name="oplus_framework_res_overlay.display.product.20384.apk" info_1="609343c51bbce9849561f1d6d36983e7" info_2="258d59d4b2ae9e646537365ac4a627a5" location="overlay/oplus_framework_res_overlay.display.product.20384.apk"
name="oplus_framework_res_overlay.display.product.20385.apk" info_1="609343c51bbce9849561f1d6d36983e7" info_2="258d59d4b2ae9e646537365ac4a627a5" location="overlay/oplus_framework_res_overlay.display.product.20385.apk"
name="oplus_framework_res_overlay.display.product.20386.apk" info_1="609343c51bbce9849561f1d6d36983e7" info_2="258d59d4b2ae9e646537365ac4a627a5" location="overlay/oplus_framework_res_overlay.display.product.20386.apk"
name="oplus_framework_res_overlay.display.product.20627.apk" info_1="609343c51bbce9849561f1d6d36983e7" info_2="258d59d4b2ae9e646537365ac4a627a5" location="overlay/oplus_framework_res_overlay.display.product.20627.apk"
name="oplus_framework_res_overlay.display.product.2065C.apk" info_1="609343c51bbce9849561f1d6d36983e7" info_2="258d59d4b2ae9e646537365ac4a627a5" location="overlay/oplus_framework_res_overlay.display.product.2065C.apk"
name="oplus_framework_res_overlay.display.product.20664.apk" info_1="609343c51bbce9849561f1d6d36983e7" info_2="258d59d4b2ae9e646537365ac4a627a5" location="overlay/oplus_framework_res_overlay.display.product.20664.apk"
name="oplus_framework_res_overlay.display.product.20669.apk" info_1="609343c51bbce9849561f1d6d36983e7" info_2="258d59d4b2ae9e646537365ac4a627a5" location="overlay/oplus_framework_res_overlay.display.product.20669.apk"
name="oplus_framework_res_overlay.display.product.206B1.apk" info_1="609343c51bbce9849561f1d6d36983e7" info_2="258d59d4b2ae9e646537365ac4a627a5" location="overlay/oplus_framework_res_overlay.display.product.206B1.apk"
name="oplus_framework_res_overlay.display.product.206B2.apk" info_1="609343c51bbce9849561f1d6d36983e7" info_2="258d59d4b2ae9e646537365ac4a627a5" location="overlay/oplus_framework_res_overlay.display.product.206B2.apk"
name="oplus_framework_res_overlay.display.product.206B3.apk" info_1="609343c51bbce9849561f1d6d36983e7" info_2="258d59d4b2ae9e646537365ac4a627a5" location="overlay/oplus_framework_res_overlay.display.product.206B3.apk"
name="oplus_framework_res_overlay.display.product.206B5.apk" info_1="609343c51bbce9849561f1d6d36983e7" info_2="258d59d4b2ae9e646537365ac4a627a5" location="overlay/oplus_framework_res_overlay.display.product.206B5.apk"
name="oplus_framework_res_overlay.display.product.20806.apk" info_1="609343c51bbce9849561f1d6d36983e7" info_2="258d59d4b2ae9e646537365ac4a627a5" location="overlay/oplus_framework_res_overlay.display.product.20806.apk"
name="oplus_framework_res_overlay.display.product.20807.apk" info_1="609343c51bbce9849561f1d6d36983e7" info_2="258d59d4b2ae9e646537365ac4a627a5" location="overlay/oplus_framework_res_overlay.display.product.20807.apk"
name="oplus_framework_res_overlay.display.product.20808.apk" info_1="609343c51bbce9849561f1d6d36983e7" info_2="258d59d4b2ae9e646537365ac4a627a5" location="overlay/oplus_framework_res_overlay.display.product.20808.apk"
name="oplus_framework_res_overlay.display.product.20809.apk" info_1="609343c51bbce9849561f1d6d36983e7" info_2="258d59d4b2ae9e646537365ac4a627a5" location="overlay/oplus_framework_res_overlay.display.product.20809.apk"
name="oplus_framework_res_overlay.display.product.20813.apk" info_1="609343c51bbce9849561f1d6d36983e7" info_2="258d59d4b2ae9e646537365ac4a627a5" location="overlay/oplus_framework_res_overlay.display.product.20813.apk"
name="oplus_framework_res_overlay.display.product.20814.apk" info_1="609343c51bbce9849561f1d6d36983e7" info_2="258d59d4b2ae9e646537365ac4a627a5" location="overlay/oplus_framework_res_overlay.display.product.20814.apk"
name="oplus_framework_res_overlay.display.product.20827.apk" info_1="609343c51bbce9849561f1d6d36983e7" info_2="258d59d4b2ae9e646537365ac4a627a5" location="overlay/oplus_framework_res_overlay.display.product.20827.apk"
name="oplus_framework_res_overlay.display.product.20828.apk" info_1="609343c51bbce9849561f1d6d36983e7" info_2="258d59d4b2ae9e646537365ac4a627a5" location="overlay/oplus_framework_res_overlay.display.product.20828.apk"
name="oplus_framework_res_overlay.display.product.20831.apk" info_1="609343c51bbce9849561f1d6d36983e7" info_2="258d59d4b2ae9e646537365ac4a627a5" location="overlay/oplus_framework_res_overlay.display.product.20831.apk"
name="oplus_framework_res_overlay.display.product.20838.apk" info_1="609343c51bbce9849561f1d6d36983e7" info_2="258d59d4b2ae9e646537365ac4a627a5" location="overlay/oplus_framework_res_overlay.display.product.20838.apk"
name="oplus_framework_res_overlay.display.product.21029.apk" info_1="609343c51bbce9849561f1d6d36983e7" info_2="258d59d4b2ae9e646537365ac4a627a5" location="overlay/oplus_framework_res_overlay.display.product.21029.apk"
name="oplus_framework_res_overlay.display.product.21030.apk" info_1="609343c51bbce9849561f1d6d36983e7" info_2="258d59d4b2ae9e646537365ac4a627a5" location="overlay/oplus_framework_res_overlay.display.product.21030.apk"
name="oplus_framework_res_overlay.display.product.21031.apk" info_1="609343c51bbce9849561f1d6d36983e7" info_2="258d59d4b2ae9e646537365ac4a627a5" location="overlay/oplus_framework_res_overlay.display.product.21031.apk"
name="oplus_framework_res_overlay.display.product.21051.apk" info_1="609343c51bbce9849561f1d6d36983e7" info_2="258d59d4b2ae9e646537365ac4a627a5" location="overlay/oplus_framework_res_overlay.display.product.21051.apk"
name="oplus_framework_res_overlay.display.product.21075.apk" info_1="609343c51bbce9849561f1d6d36983e7" info_2="258d59d4b2ae9e646537365ac4a627a5" location="overlay/oplus_framework_res_overlay.display.product.21075.apk"
name="oplus_framework_res_overlay.display.product.21091.apk" info_1="609343c51bbce9849561f1d6d36983e7" info_2="258d59d4b2ae9e646537365ac4a627a5" location="overlay/oplus_framework_res_overlay.display.product.21091.apk"
name="oplus_framework_res_overlay.display.product.21261.apk" info_1="609343c51bbce9849561f1d6d36983e7" info_2="258d59d4b2ae9e646537365ac4a627a5" location="overlay/oplus_framework_res_overlay.display.product.21261.apk"
name="oplus_framework_res_overlay.display.product.21262.apk" info_1="609343c51bbce9849561f1d6d36983e7" info_2="258d59d4b2ae9e646537365ac4a627a5" location="overlay/oplus_framework_res_overlay.display.product.21262.apk"
name="oplus_framework_res_overlay.display.product.21263.apk" info_1="609343c51bbce9849561f1d6d36983e7" info_2="258d59d4b2ae9e646537365ac4a627a5" location="overlay/oplus_framework_res_overlay.display.product.21263.apk"
name="oplus_framework_res_overlay.display.product.21265.apk" info_1="609343c51bbce9849561f1d6d36983e7" info_2="258d59d4b2ae9e646537365ac4a627a5" location="overlay/oplus_framework_res_overlay.display.product.21265.apk"
name="oplus_framework_res_overlay.display.product.21266.apk" info_1="609343c51bbce9849561f1d6d36983e7" info_2="258d59d4b2ae9e646537365ac4a627a5" location="overlay/oplus_framework_res_overlay.display.product.21266.apk"
name="oplus_framework_res_overlay.display.product.21267.apk" info_1="609343c51bbce9849561f1d6d36983e7" info_2="258d59d4b2ae9e646537365ac4a627a5" location="overlay/oplus_framework_res_overlay.display.product.21267.apk"
name="oplus_framework_res_overlay.display.product.21268.apk" info_1="609343c51bbce9849561f1d6d36983e7" info_2="258d59d4b2ae9e646537365ac4a627a5" location="overlay/oplus_framework_res_overlay.display.product.21268.apk"
name="oplus_framework_res_overlay.display.product.21603.apk" info_1="609343c51bbce9849561f1d6d36983e7" info_2="258d59d4b2ae9e646537365ac4a627a5" location="overlay/oplus_framework_res_overlay.display.product.21603.apk"
name="oplus_framework_res_overlay.display.product.21604.apk" info_1="609343c51bbce9849561f1d6d36983e7" info_2="258d59d4b2ae9e646537365ac4a627a5" location="overlay/oplus_framework_res_overlay.display.product.21604.apk"
name="oplus_framework_res_overlay.display.product.2161A.apk" info_1="609343c51bbce9849561f1d6d36983e7" info_2="258d59d4b2ae9e646537365ac4a627a5" location="overlay/oplus_framework_res_overlay.display.product.2161A.apk"
name="oplus_framework_res_overlay.display.product.21643.apk" info_1="609343c51bbce9849561f1d6d36983e7" info_2="258d59d4b2ae9e646537365ac4a627a5" location="overlay/oplus_framework_res_overlay.display.product.21643.apk"
name="oplus_framework_res_overlay.display.product.21644.apk" info_1="609343c51bbce9849561f1d6d36983e7" info_2="258d59d4b2ae9e646537365ac4a627a5" location="overlay/oplus_framework_res_overlay.display.product.21644.apk"
name="oplus_framework_res_overlay.display.product.21645.apk" info_1="609343c51bbce9849561f1d6d36983e7" info_2="258d59d4b2ae9e646537365ac4a627a5" location="overlay/oplus_framework_res_overlay.display.product.21645.apk"
name="oplus_framework_res_overlay.display.product.21675.apk" info_1="609343c51bbce9849561f1d6d36983e7" info_2="258d59d4b2ae9e646537365ac4a627a5" location="overlay/oplus_framework_res_overlay.display.product.21675.apk"
name="oplus_framework_res_overlay.display.product.21676.apk" info_1="609343c51bbce9849561f1d6d36983e7" info_2="258d59d4b2ae9e646537365ac4a627a5" location="overlay/oplus_framework_res_overlay.display.product.21676.apk"
name="oplus_framework_res_overlay.display.product.216C1.apk" info_1="609343c51bbce9849561f1d6d36983e7" info_2="258d59d4b2ae9e646537365ac4a627a5" location="overlay/oplus_framework_res_overlay.display.product.216C1.apk"
name="oplus_framework_res_overlay.display.product.216C2.apk" info_1="609343c51bbce9849561f1d6d36983e7" info_2="258d59d4b2ae9e646537365ac4a627a5" location="overlay/oplus_framework_res_overlay.display.product.216C2.apk"
name="oplus_framework_res_overlay.display.product.216C3.apk" info_1="609343c51bbce9849561f1d6d36983e7" info_2="258d59d4b2ae9e646537365ac4a627a5" location="overlay/oplus_framework_res_overlay.display.product.216C3.apk"
name="oplus_framework_res_overlay.display.product.216C4.apk" info_1="609343c51bbce9849561f1d6d36983e7" info_2="258d59d4b2ae9e646537365ac4a627a5" location="overlay/oplus_framework_res_overlay.display.product.216C4.apk"
name="oplus_framework_res_overlay.display.product.216C5.apk" info_1="609343c51bbce9849561f1d6d36983e7" info_2="258d59d4b2ae9e646537365ac4a627a5" location="overlay/oplus_framework_res_overlay.display.product.216C5.apk"
name="oplus_framework_res_overlay.display.product.216CB.apk" info_1="609343c51bbce9849561f1d6d36983e7" info_2="258d59d4b2ae9e646537365ac4a627a5" location="overlay/oplus_framework_res_overlay.display.product.216CB.apk"
name="oplus_framework_res_rro_oneplus.apk" info_1="609343c51bbce9849561f1d6d36983e7" info_2="258d59d4b2ae9e646537365ac4a627a5" location="overlay/oplus_framework_res_rro_oneplus.apk"
name="oplus_framework_res_rro_oppo.apk" info_1="609343c51bbce9849561f1d6d36983e7" info_2="258d59d4b2ae9e646537365ac4a627a5" location="overlay/oplus_framework_res_rro_oppo.apk"
name="oplus_framework_res_rro_realme.apk" info_1="609343c51bbce9849561f1d6d36983e7" info_2="258d59d4b2ae9e646537365ac4a627a5" location="overlay/oplus_framework_res_rro_realme.apk"
name="oplus_framework_res_rro_tmo.apk" info_1="609343c51bbce9849561f1d6d36983e7" info_2="258d59d4b2ae9e646537365ac4a627a5" location="overlay/oplus_framework_res_rro_tmo.apk"
name="oppo_framework_res_overlay.display.product.20619.apk" info_1="609343c51bbce9849561f1d6d36983e7" info_2="258d59d4b2ae9e646537365ac4a627a5" location="overlay/oppo_framework_res_overlay.display.product.20619.apk"
